
=================================================================

 SIGMA   2009 Mar 13 14: 7:43  -240 UTC

 Running serial version (no MPI)

Version date : Fri Jan  2 17:07:49 EST 2009
architecture = intel_oic
pre-processing options = -DUSEMKL
compilation options = -O3 -ip -xT -align

=================================================================


 Electronic structure data :
 ---------------------------

 Reading electron wavefunctions from file parsec.dat/wfn.dat

 Wavefunction file created on 13-MAR-2009 14:07:30 -0400 UTC

 Spin polarized calculation.

  Number of occupied levels, spin            1  :    4.00000000000000     
 DFT Eigenvalues (eV), spin            1  :
 -19.61  -8.48  -8.48  -8.48   1.05   2.99   2.99   2.99   4.98   4.98
   5.01   5.01   5.01   8.79   8.79   8.79   8.81   8.81   8.81   8.85
   9.63  11.88  11.88  11.88  12.72  12.75  12.75  12.81  12.81  12.81
  12.83  12.83  12.83  13.11  13.11  13.19  13.19  13.19  17.11  17.11
  17.11  17.18  17.18  17.18  17.23  17.23  17.23  17.24  17.24  19.74
  19.74  19.74  19.78  19.78  19.78  19.88  21.89  21.89  21.99  21.99
  21.99  22.02  22.04  22.08  22.08  22.08  22.09  22.09  22.09  23.41
  25.30  25.30  25.48  25.48  25.48  25.70  25.70  25.70  26.07  26.15
 Irreducible representations, spin            1  :
    1    6    7    8    1    6    7    8    1    1
    3    4    2    6    7    8    8    7    6    5
    1    6    7    8    1    1    1    4    3    2
    3    2    4    1    1    4    3    2    7    6
    8    7    6    8    8    7    6    5    5    8
    6    7    8    7    6    5    1    1    4    2
    3    1    1    4    2    3    2    3    4    1
    1    1    2    3    4    8    6    7    1    1
 
  Number of occupied levels, spin            2  :    1.00000000000000     
 DFT Eigenvalues (eV), spin            2  :
 -14.88  -4.16  -4.16  -4.16   1.66   3.69   3.69   3.69   5.27   5.27
   5.30   5.30   5.30   8.93   8.93   8.93   8.95   8.95   8.95   8.99
  10.52  12.82  12.85  12.85  12.90  12.90  12.90  12.93  12.93  12.93
  12.95  12.95  12.95  13.85  13.85  13.93  13.93  13.93  17.18  17.18
  17.18  17.25  17.25  17.25  17.30  17.30  17.30  17.31  17.31  20.15
  20.15  20.15  20.20  20.20  20.20  20.30  21.95  21.95  22.04  22.04
  22.04  22.07  22.09  22.13  22.13  22.13  22.14  22.14  22.14  24.50
  26.30  26.30  26.35  26.50  26.50  26.50  26.50  26.50  26.53  26.53
 Irreducible representations, spin            2  :
    1    6    8    7    1    6    8    7    1    1
    4    3    2    6    7    8    8    7    6    5
    1    1    1    1    4    2    3    2    3    4
    6    7    8    1    1    4    3    2    7    6
    8    7    6    8    8    7    6    5    5    8
    6    7    8    7    6    5    1    1    4    2
    3    1    1    2    4    3    2    3    4    1
    1    1    1    3    2    4    1    1    3    2
 
 Maximum value of electron density (a.u.^-3) =   0.47235883E+00
 Total number of electrons =     5.0000

 MPI data :
 ----------

  Group partition information: 
  Distributing            1  processors among            1  groups.
  Each group contains            1  processors.
  I am processor rank            0  in group            0
  I am master in my group, with master rank            0
  My group has representations: 
    1    2    3    4    5    6    7    8

  Wavefunction partition information: 
  Distributing            1  processors among            1  groups.
  Each group contains            1  processors.
  I am processor rank            0  in group            0
  I am master in my group, with master rank    0

 Atom data :
 -----------

 Atom coordinates input in Bohr radii.

  Atomic coordinates (all atoms) are :
           x [a.u.]          y [a.u.]          z [a.u.]           Type
   1       0.000000000       0.000000000       0.000000000         N 

 Total number of atoms =    1
 Total number of atom types =    1

 Pseudopotential messages, element N :
 --------------------------------------

 Pseudopotential format : new Martins
 Pseudopotential file for this atom type is N_POTRE.DAT
  N  ca nrl nc
  ATM3       8-JUL- 4 Troullier-Martins
 2s 2.00  r= 1.59/2p 3.00  r= 1.59/

 logarithmic parameters of pseudopot. radial grid
 r(i) = a*[Exp(b(i-1)) - 1)]
 a (a.u.) = 0.354107E-03 b = 0.125000E-01 c = 0.354107E-03 nr =     1019

 # of pseudopot= 2, Local component is l = 1
 Core radius (a.u.) =  1.61

 Normalization check and Kleinman-Bylander Integral:
                        s             p
 Normalization        1.00002606    1.00002617
 K-B Integral (Ry)    1.63280704   -9.08220493

 Grid data :
 -----------

 Gradients and Laplacians calculated with finite differences, order   6

 Number of finite difference directions =  3
 Finite difference directions:
     1     0     0     weight =  1.000000
     0     1     0     weight =  1.000000
     0     0     1     weight =  1.000000

  ELECTRONIC SYSTEM IS CONFINED !


 Confining radius (a.u.) =         7.980445

 Grid spacing (a.u.) =         0.500000        0.500000        0.500000

 Real-space FFT grid =   64  64  64  66

 Long-wavelength Coulomb energy (eV) =         0.0000000000

 Coulomb truncation length (a.u.) =        15.9608896995

 Full grid has      17256 points.
 Irreducible wedge has       2157 points.

 ELAPSED TIME =        0.02 s. parsec_wfn:  reading wave functions

 Read wavefunctions for         80 levels, spin    1

 Read wavefunctions for         80 levels, spin    2

-----------------------------------------------------------------


-----------------------------------------------------------------

 ELAPSED TIME =        0.03 s. Calling setup_s

  Spin up channel:
  Calculating           80  diagonal matrix elements
  and          426  off-diagonal matrix elements.
  Calculating           80  diagonal matrix elements
  and          426  off-diagonal matrix elements beyond COHSEX.

  Spin down chanel:
  Calculating           80  diagonal matrix elements
  and          431  off-diagonal matrix elements.
  Calculating           80  diagonal matrix elements
  and          431  off-diagonal matrix elements beyond COHSEX.
  Calculating exchange matrix elements, spin            1
 Functional : Slater exchange
  Calculating correlation matrix elements, spin            1
 Functional : Perdew & Wang
  Calculating exchange matrix elements, spin            1
 Functional : Slater exchange
  Calculating correlation matrix elements, spin            1
 Functional : Perdew & Wang

 V_xc MATRIX ELEMENTS (eV): 
    spin =  1
   n     E_dft     E_0       V_xc      V_x       V_c
   1   -19.612   -19.612   -18.106   -16.903    -1.203
   2    -8.476    -8.476   -17.198   -16.037    -1.161
   3    -8.476    -8.476   -17.198   -16.037    -1.161
   4    -8.476    -8.476   -17.198   -16.037    -1.161
   5     1.054     1.054    -3.303    -2.892    -0.411
   6     2.994     2.994    -3.176    -2.802    -0.374
   7     2.994     2.994    -3.176    -2.802    -0.374
   8     2.994     2.994    -3.176    -2.802    -0.374
   9     4.980     4.980    -2.162    -1.831    -0.330
  10     4.980     4.980    -2.162    -1.831    -0.330
  11     5.006     5.006    -2.179    -1.847    -0.332
  12     5.006     5.006    -2.179    -1.847    -0.332
  13     5.006     5.006    -2.179    -1.847    -0.332
  14     8.785     8.785    -1.341    -1.100    -0.241
  15     8.785     8.785    -1.341    -1.100    -0.241
  16     8.785     8.785    -1.341    -1.100    -0.241
  17     8.807     8.807    -1.346    -1.104    -0.242
  18     8.807     8.807    -1.346    -1.104    -0.242
  19     8.807     8.807    -1.346    -1.104    -0.242
  20     8.847     8.847    -1.356    -1.113    -0.244
  21     9.631     9.631    -4.005    -3.583    -0.421
  22    11.882    11.882    -4.480    -4.033    -0.447
  23    11.882    11.882    -4.480    -4.033    -0.447
  24    11.882    11.882    -4.480    -4.033    -0.447
  25    12.724    12.724    -1.030    -0.830    -0.201
  26    12.753    12.753    -1.080    -0.874    -0.205
  27    12.753    12.753    -1.080    -0.874    -0.205
  28    12.808    12.808    -1.040    -0.837    -0.202
  29    12.808    12.808    -1.040    -0.837    -0.202
  30    12.808    12.808    -1.040    -0.837    -0.202
  31    12.834    12.834    -1.064    -0.859    -0.205
  32    12.834    12.834    -1.064    -0.859    -0.205
  33    12.834    12.834    -1.064    -0.859    -0.205
  34    13.115    13.115    -3.938    -3.476    -0.462
  35    13.115    13.115    -3.938    -3.476    -0.462
  36    13.191    13.191    -3.984    -3.517    -0.466
  37    13.191    13.191    -3.984    -3.517    -0.466
  38    13.191    13.191    -3.984    -3.517    -0.466
  39    17.113    17.113    -0.864    -0.687    -0.177
  40    17.113    17.113    -0.864    -0.687    -0.177
  41    17.113    17.113    -0.864    -0.687    -0.177
  42    17.184    17.184    -0.867    -0.690    -0.178
  43    17.184    17.184    -0.867    -0.690    -0.178
  44    17.184    17.184    -0.867    -0.690    -0.178
  45    17.231    17.231    -0.873    -0.694    -0.178
  46    17.231    17.231    -0.873    -0.694    -0.178
  47    17.231    17.231    -0.873    -0.694    -0.178
  48    17.244    17.244    -0.873    -0.694    -0.178
  49    17.244    17.244    -0.873    -0.694    -0.178
  50    19.735    19.735    -2.623    -2.251    -0.372
  51    19.735    19.735    -2.623    -2.251    -0.372
  52    19.735    19.735    -2.623    -2.251    -0.372
  53    19.784    19.784    -2.637    -2.264    -0.373
  54    19.784    19.784    -2.637    -2.264    -0.373
  55    19.784    19.784    -2.637    -2.264    -0.373
  56    19.881    19.881    -2.650    -2.276    -0.375
  57    21.893    21.893    -0.760    -0.600    -0.160
  58    21.893    21.893    -0.760    -0.600    -0.160
  59    21.989    21.989    -0.755    -0.595    -0.160
  60    21.989    21.989    -0.755    -0.595    -0.160
  61    21.989    21.989    -0.755    -0.595    -0.160
  62    22.016    22.016    -0.759    -0.598    -0.161
  63    22.040    22.040    -0.758    -0.597    -0.161
  64    22.077    22.077    -0.761    -0.599    -0.161
  65    22.077    22.077    -0.761    -0.599    -0.161
  66    22.077    22.077    -0.761    -0.599    -0.161
  67    22.088    22.088    -0.763    -0.601    -0.161
  68    22.088    22.088    -0.763    -0.601    -0.161
  69    22.088    22.088    -0.763    -0.601    -0.161
  70    23.413    23.413    -4.718    -4.259    -0.460
  71    25.301    25.301    -5.066    -4.552    -0.514
  72    25.301    25.301    -5.066    -4.552    -0.514
  73    25.477    25.477    -5.100    -4.583    -0.518
  74    25.477    25.477    -5.100    -4.583    -0.518
  75    25.477    25.477    -5.100    -4.583    -0.518
  76    25.700    25.700    -5.006    -4.530    -0.476
  77    25.700    25.700    -5.006    -4.530    -0.476
  78    25.700    25.700    -5.006    -4.530    -0.476
  79    26.066    26.066    -2.027    -1.710    -0.317
  80    26.149    26.149    -2.071    -1.750    -0.321
-----------------------------------------------------------------

  Calculating exchange matrix elements, spin            1
 Functional : Slater exchange
  Calculating correlation matrix elements, spin            1
 Functional : Perdew & Wang
  Calculating exchange matrix elements, spin            2
 Functional : Slater exchange
  Calculating correlation matrix elements, spin            2
 Functional : Perdew & Wang
  Calculating exchange matrix elements, spin            2
 Functional : Slater exchange
  Calculating correlation matrix elements, spin            2
 Functional : Perdew & Wang

 V_xc MATRIX ELEMENTS (eV): 
    spin =  2
   n     E_dft     E_0       V_xc      V_x       V_c
   1   -14.883   -14.883   -12.729   -10.175    -2.554
   2    -4.158    -4.158   -11.255    -8.885    -2.370
   3    -4.158    -4.158   -11.255    -8.885    -2.370
   4    -4.158    -4.158   -11.255    -8.885    -2.370
   5     1.656     1.656    -2.507    -1.534    -0.973
   6     3.692     3.692    -2.864    -1.906    -0.958
   7     3.692     3.692    -2.864    -1.906    -0.958
   8     3.692     3.692    -2.864    -1.906    -0.958
   9     5.275     5.275    -1.695    -0.889    -0.806
  10     5.275     5.275    -1.695    -0.889    -0.806
  11     5.304     5.304    -1.708    -0.898    -0.811
  12     5.304     5.304    -1.708    -0.898    -0.811
  13     5.304     5.304    -1.708    -0.898    -0.811
  14     8.930     8.930    -1.160    -0.523    -0.638
  15     8.930     8.930    -1.160    -0.523    -0.638
  16     8.930     8.930    -1.160    -0.523    -0.638
  17     8.952     8.952    -1.165    -0.525    -0.640
  18     8.952     8.952    -1.165    -0.525    -0.640
  19     8.952     8.952    -1.165    -0.525    -0.640
  20     8.994     8.994    -1.173    -0.530    -0.643
  21    10.515    10.515    -3.208    -2.184    -1.024
  22    12.817    12.817    -0.926    -0.380    -0.546
  23    12.849    12.849    -0.931    -0.383    -0.548
  24    12.849    12.849    -0.931    -0.383    -0.548
  25    12.902    12.902    -0.933    -0.383    -0.550
  26    12.902    12.902    -0.933    -0.383    -0.550
  27    12.902    12.902    -0.933    -0.383    -0.550
  28    12.931    12.931    -0.938    -0.386    -0.552
  29    12.931    12.931    -0.938    -0.386    -0.552
  30    12.931    12.931    -0.938    -0.386    -0.552
  31    12.950    12.950    -3.734    -2.626    -1.108
  32    12.950    12.950    -3.734    -2.626    -1.108
  33    12.950    12.950    -3.734    -2.626    -1.108
  34    13.848    13.848    -3.024    -1.963    -1.061
  35    13.848    13.848    -3.024    -1.963    -1.061
  36    13.930    13.930    -3.046    -1.980    -1.066
  37    13.930    13.930    -3.046    -1.980    -1.066
  38    13.930    13.930    -3.046    -1.980    -1.066
  39    17.181    17.181    -0.790    -0.303    -0.487
  40    17.181    17.181    -0.790    -0.303    -0.487
  41    17.181    17.181    -0.790    -0.303    -0.487
  42    17.251    17.251    -0.794    -0.304    -0.489
  43    17.251    17.251    -0.794    -0.304    -0.489
  44    17.251    17.251    -0.794    -0.304    -0.489
  45    17.299    17.299    -0.798    -0.306    -0.491
  46    17.299    17.299    -0.798    -0.306    -0.491
  47    17.299    17.299    -0.798    -0.306    -0.491
  48    17.312    17.312    -0.798    -0.307    -0.492
  49    17.312    17.312    -0.798    -0.307    -0.492
  50    20.152    20.152    -2.134    -1.230    -0.904
  51    20.152    20.152    -2.134    -1.230    -0.904
  52    20.152    20.152    -2.134    -1.230    -0.904
  53    20.204    20.204    -2.144    -1.236    -0.907
  54    20.204    20.204    -2.144    -1.236    -0.907
  55    20.204    20.204    -2.144    -1.236    -0.907
  56    20.304    20.304    -2.155    -1.244    -0.910
  57    21.946    21.946    -0.700    -0.256    -0.443
  58    21.946    21.946    -0.700    -0.256    -0.443
  59    22.042    22.042    -0.699    -0.255    -0.445
  60    22.042    22.042    -0.699    -0.255    -0.445
  61    22.042    22.042    -0.699    -0.255    -0.445
  62    22.069    22.069    -0.702    -0.256    -0.446
  63    22.092    22.092    -0.702    -0.256    -0.446
  64    22.130    22.130    -0.704    -0.257    -0.448
  65    22.130    22.130    -0.704    -0.257    -0.448
  66    22.130    22.130    -0.704    -0.257    -0.448
  67    22.142    22.142    -0.706    -0.258    -0.448
  68    22.142    22.142    -0.706    -0.258    -0.448
  69    22.142    22.142    -0.706    -0.258    -0.448
  70    24.497    24.497    -3.697    -2.599    -1.098
  71    26.295    26.295    -3.051    -2.026    -1.025
  72    26.295    26.295    -3.051    -2.026    -1.025
  73    26.355    26.355    -1.717    -0.912    -0.805
  74    26.499    26.499    -3.225    -2.169    -1.055
  75    26.499    26.499    -3.225    -2.169    -1.055
  76    26.499    26.499    -3.225    -2.169    -1.055
  77    26.503    26.503    -2.556    -1.610    -0.946
  78    26.503    26.503    -2.556    -1.610    -0.946
  79    26.529    26.529    -1.716    -0.908    -0.808
  80    26.529    26.529    -1.716    -0.908    -0.808
-----------------------------------------------------------------

  Calculating exchange matrix elements, spin            2
 Functional : Slater exchange
  Calculating correlation matrix elements, spin            2
 Functional : Perdew & Wang
 ELAPSED TIME =        0.15 s.  Creating   64 x   64 x   64 FFT MKL descriptors.
 ELAPSED TIME =        1.00 s. FFT finalized
 ELAPSED TIME =        1.01 s.  Creating   64 x   64 x   64 FFT MKL descriptors.
 ELAPSED TIME =        1.46 s. FFT finalized
 
                  Eigenvalue Energy =        -4.4043335292 [Ry]
                     Kinetic Energy =        12.5181599153 [Ry]
       Local Pseudopotential Energy =       -46.9738215547 [Ry]
   Non-local Pseudopotential Energy =         3.1525907813 [Ry]
                     Ion-ion Energy =         0.0000000000 [Ry]
                       Total Energy =       -17.8537021936 [Ry]
 Total energy excludes Exc - Int_{Vxc*rho}/2 term.
 WARNING! Pseudopotential energies and total energy are
 incorrect if Martins_old pseudopotentials are used.
 

-----------------------------------------------------------------

 Self-energy input data: 
 -----------------------

 Number of transitions per representation in TDLDA polarizabillity:
      67      41      41      40      32      54      54      54
 total =        383

 No energy cutoff in TDLDA polarizability
 Not using the Tamm-Dancoff approximation in TDLDA polarizability.

 Sum rule not renormalized

 Order of highest LDA state included in Green function =    80
 Order of highest LDA state included in COHSEX approximation =    80

 Energy resolution in energy poles, self-energy (eV) =  3.000    

 Energy range used to calculate self-energy  =    30.0000 eV 

 Number of data points used to calculate self-energy =    61

 Calculating < n_1 | Sigma | n_2 > at the energy of orbital n_1

 Calculating W_pol in static limit with nr =         1077
 Fraction of electron density within nr =    99.9900388988335       %
 Disk space used =       6.29 MB

 Memory needed to store wavefunctions :       2.63 MB/proc.
 Memory needed to calculate kernel matrix elements :       0.08 MB/proc.
 Memory needed for diagonalization :       0.10 MB/proc.
 Memory needed in self-energy calculation :      2.94 MB/proc.
 Minimum memory needed :       2.94 MB/proc.

-----------------------------------------------------------------


*****************************************************************

  Start self-consistent iteration            0  out of            0
 
 Reading polarizability eigenvalues/eigenvectors  from pol_diag.dat 
 
  File created on 2009 Mar 13 14: 7:32  -240 UTC
  Representation            1  out of            8
  Lowest energy eigenvalues in polarizability (eV): 
       11.316086
       11.316086
       12.112712
  Representation            2  out of            8
  Lowest energy eigenvalues in polarizability (eV): 
       11.304510
       11.470550
       17.108658
  Representation            3  out of            8
  Lowest energy eigenvalues in polarizability (eV): 
       11.304510
       11.470550
       17.108658
  Representation            4  out of            8
  Lowest energy eigenvalues in polarizability (eV): 
       11.304510
       11.470550
       17.108658
  Representation            5  out of            8
  Lowest energy eigenvalues in polarizability (eV): 
       13.295457
       13.482124
       13.482124
  Representation            6  out of            8
  Lowest energy eigenvalues in polarizability (eV): 
        9.413463
       11.000629
       13.278791
  Representation            7  out of            8
  Lowest energy eigenvalues in polarizability (eV): 
        9.413467
       11.000708
       13.278818
  Representation            8  out of            8
  Lowest energy eigenvalues in polarizability (eV): 
        9.413493
       11.001315
       13.279041
 ELAPSED TIME =        1.46 s.  Calling readmatrix kernel_p

 readmatrix: skipping reading of matrix elements 

 ELAPSED TIME =        1.46 s.  Calling readmatrix kernel_p

 readmatrix: skipping reading of matrix elements 

 ELAPSED TIME =        1.46 s.  Calling readmatrix kernel_p

 readmatrix: skipping reading of matrix elements 

 ELAPSED TIME =        1.46 s.  Calling readmatrix kernel_p

 readmatrix: skipping reading of matrix elements 

 ELAPSED TIME =        1.46 s.  Calling readmatrix kernel_p

 readmatrix: skipping reading of matrix elements 

 ELAPSED TIME =        1.46 s.  Calling readmatrix kernel_p

 readmatrix: skipping reading of matrix elements 

 ELAPSED TIME =        1.46 s.  Calling readmatrix kernel_p

 readmatrix: skipping reading of matrix elements 

 ELAPSED TIME =        1.46 s.  Calling readmatrix kernel_p

 readmatrix: skipping reading of matrix elements 


-----------------------------------------------------------------

 Checking oscillator strength sum rule
 Ratio between numerical and exact values :
                            Field polarization
                           x  ----  y  ----  z  ---- average
  RPA-LDA Sum Rule  =   0.6813   0.6812   0.6807      0.6811
     ALDA Sum Rule  =   0.6813   0.6812   0.6807      0.6811

-----------------------------------------------------------------

 Static polarizability (a.u.) 
                                 Field polarization 
                                x  ----  y  ----  z  ---- average
 RPA-LDA Polarizability =     9.85     9.85     9.85        9.851
    ALDA Polarizability =     8.07     8.07     8.07        8.069

  Average ALDA sum rule =   0.681073983516443     
  Average static RPA-LDA polarizability =    9.85099872286540     
-----------------------------------------------------------------

  Lowest energy eigenvalues in polarizability, all representations:
 Order      Energy (eV)  Representation
    1        9.413463         6
    2        9.413467         7
    3        9.413493         8
    4       11.000629         6
    5       11.000708         7
    6       11.001315         8
    7       11.304510         3
    8       11.304510         2
    9       11.304510         4
   10       11.316086         1
 ELAPSED TIME =        1.46 s.  Creating   64 x   64 x   64 FFT MKL descriptors.
 ELAPSED TIME =        1.48 s.  Memory allocation done. Start calculating vvc,fvc.
 ELAPSED TIME =        1.84 s.  vvc/fvc calculation
        13 out of         67 representation  1 spin  1
 ELAPSED TIME =        2.20 s.  vvc/fvc calculation
        26 out of         67 representation  1 spin  1
 ELAPSED TIME =        2.56 s.  vvc/fvc calculation
        39 out of         67 representation  1 spin  1
 ELAPSED TIME =        2.92 s.  vvc/fvc calculation
        52 out of         67 representation  1 spin  2
 ELAPSED TIME =        3.28 s.  vvc/fvc calculation
        65 out of         67 representation  1 spin  2
 ELAPSED TIME =        3.34 s. FFT finalized
 ELAPSED TIME =        3.34 s. Finished calculation of vvc/fvc.
 ELAPSED TIME =        3.34 s.  Creating   64 x   64 x   64 FFT MKL descriptors.
 ELAPSED TIME =        3.37 s.  Memory allocation done. Start calculating vvc,fvc.
 ELAPSED TIME =        3.59 s.  vvc/fvc calculation
         8 out of         41 representation  2 spin  1
 ELAPSED TIME =        3.82 s.  vvc/fvc calculation
        16 out of         41 representation  2 spin  1
 ELAPSED TIME =        4.04 s.  vvc/fvc calculation
        24 out of         41 representation  2 spin  1
 ELAPSED TIME =        4.26 s.  vvc/fvc calculation
        32 out of         41 representation  2 spin  1
 ELAPSED TIME =        4.87 s.  vvc/fvc calculation
        40 out of         41 representation  2 spin  2
 ELAPSED TIME =        4.90 s. FFT finalized
 ELAPSED TIME =        4.90 s. Finished calculation of vvc/fvc.
 ELAPSED TIME =        4.90 s.  Creating   64 x   64 x   64 FFT MKL descriptors.
 ELAPSED TIME =        4.93 s.  Memory allocation done. Start calculating vvc,fvc.
 ELAPSED TIME =        5.15 s.  vvc/fvc calculation
         8 out of         41 representation  3 spin  1
 ELAPSED TIME =        5.38 s.  vvc/fvc calculation
        16 out of         41 representation  3 spin  1
 ELAPSED TIME =        5.64 s.  vvc/fvc calculation
        24 out of         41 representation  3 spin  1
 ELAPSED TIME =        5.87 s.  vvc/fvc calculation
        32 out of         41 representation  3 spin  1
 ELAPSED TIME =        6.09 s.  vvc/fvc calculation
        40 out of         41 representation  3 spin  2
 ELAPSED TIME =        6.12 s. FFT finalized
 ELAPSED TIME =        6.12 s. Finished calculation of vvc/fvc.
 ELAPSED TIME =        6.12 s.  Creating   64 x   64 x   64 FFT MKL descriptors.
 ELAPSED TIME =        6.15 s.  Memory allocation done. Start calculating vvc,fvc.
 ELAPSED TIME =        6.38 s.  vvc/fvc calculation
         8 out of         40 representation  4 spin  1
 ELAPSED TIME =        6.60 s.  vvc/fvc calculation
        16 out of         40 representation  4 spin  1
 ELAPSED TIME =        6.83 s.  vvc/fvc calculation
        24 out of         40 representation  4 spin  1
 ELAPSED TIME =        7.05 s.  vvc/fvc calculation
        32 out of         40 representation  4 spin  1
 ELAPSED TIME =        7.28 s.  vvc/fvc calculation
        40 out of         40 representation  4 spin  2
 ELAPSED TIME =        7.28 s. FFT finalized
 ELAPSED TIME =        7.28 s. Finished calculation of vvc/fvc.
 ELAPSED TIME =        7.28 s.  Creating   64 x   64 x   64 FFT MKL descriptors.
 ELAPSED TIME =        7.31 s.  Memory allocation done. Start calculating vvc,fvc.
 ELAPSED TIME =        7.48 s.  vvc/fvc calculation
         6 out of         32 representation  5 spin  1
 ELAPSED TIME =        7.65 s.  vvc/fvc calculation
        12 out of         32 representation  5 spin  1
 ELAPSED TIME =        7.82 s.  vvc/fvc calculation
        18 out of         32 representation  5 spin  1
 ELAPSED TIME =        7.98 s.  vvc/fvc calculation
        24 out of         32 representation  5 spin  1
 ELAPSED TIME =        8.15 s.  vvc/fvc calculation
        30 out of         32 representation  5 spin  2
 ELAPSED TIME =        8.21 s. FFT finalized
 ELAPSED TIME =        8.21 s. Finished calculation of vvc/fvc.
 ELAPSED TIME =        8.21 s.  Creating   64 x   64 x   64 FFT MKL descriptors.
 ELAPSED TIME =        8.24 s.  Memory allocation done. Start calculating vvc,fvc.
 ELAPSED TIME =        8.53 s.  vvc/fvc calculation
        10 out of         54 representation  6 spin  1
 ELAPSED TIME =        9.20 s.  vvc/fvc calculation
        20 out of         54 representation  6 spin  1
 ELAPSED TIME =        9.49 s.  vvc/fvc calculation
        30 out of         54 representation  6 spin  1
 ELAPSED TIME =        9.77 s.  vvc/fvc calculation
        40 out of         54 representation  6 spin  1
 ELAPSED TIME =       10.07 s.  vvc/fvc calculation
        50 out of         54 representation  6 spin  2
 ELAPSED TIME =       10.36 s. FFT finalized
 ELAPSED TIME =       10.36 s. Finished calculation of vvc/fvc.
 ELAPSED TIME =       10.36 s.  Creating   64 x   64 x   64 FFT MKL descriptors.
 ELAPSED TIME =       10.38 s.  Memory allocation done. Start calculating vvc,fvc.
 ELAPSED TIME =       10.75 s.  vvc/fvc calculation
        10 out of         54 representation  7 spin  1
 ELAPSED TIME =       11.26 s.  vvc/fvc calculation
        20 out of         54 representation  7 spin  1
 ELAPSED TIME =       11.57 s.  vvc/fvc calculation
        30 out of         54 representation  7 spin  1
 ELAPSED TIME =       11.84 s.  vvc/fvc calculation
        40 out of         54 representation  7 spin  1
 ELAPSED TIME =       12.12 s.  vvc/fvc calculation
        50 out of         54 representation  7 spin  2
 ELAPSED TIME =       12.23 s. FFT finalized
 ELAPSED TIME =       12.23 s. Finished calculation of vvc/fvc.
 ELAPSED TIME =       12.23 s.  Creating   64 x   64 x   64 FFT MKL descriptors.
 ELAPSED TIME =       12.26 s.  Memory allocation done. Start calculating vvc,fvc.
 ELAPSED TIME =       12.54 s.  vvc/fvc calculation
        10 out of         54 representation  8 spin  1
 ELAPSED TIME =       12.82 s.  vvc/fvc calculation
        20 out of         54 representation  8 spin  1
 ELAPSED TIME =       13.10 s.  vvc/fvc calculation
        30 out of         54 representation  8 spin  1
 ELAPSED TIME =       13.77 s.  vvc/fvc calculation
        40 out of         54 representation  8 spin  1
 ELAPSED TIME =       14.05 s.  vvc/fvc calculation
        50 out of         54 representation  8 spin  2
 ELAPSED TIME =       14.16 s. FFT finalized
 ELAPSED TIME =       14.16 s. Finished calculation of vvc/fvc.
  Distributing grid points among PEs. 
        1077  grid points per PE. 
 Seek representation   1 in pol_diag.dat.   1  1      67
 ELAPSED TIME =       14.18 s.  vr/fr calculation
       215 out of       1077 representation  1 processor    0
 ELAPSED TIME =       14.18 s.  vr/fr calculation
       430 out of       1077 representation  1 processor    0
 ELAPSED TIME =       14.19 s.  vr/fr calculation
       645 out of       1077 representation  1 processor    0
 ELAPSED TIME =       14.19 s.  vr/fr calculation
       860 out of       1077 representation  1 processor    0
 ELAPSED TIME =       14.20 s.  vr/fr calculation
      1075 out of       1077 representation  1 processor    0
 Seek representation   2 in pol_diag.dat.   2  1      41
 ELAPSED TIME =       14.20 s.  vr/fr calculation
       215 out of       1077 representation  2 processor    0
 ELAPSED TIME =       14.21 s.  vr/fr calculation
       430 out of       1077 representation  2 processor    0
 ELAPSED TIME =       14.21 s.  vr/fr calculation
       645 out of       1077 representation  2 processor    0
 ELAPSED TIME =       14.21 s.  vr/fr calculation
       860 out of       1077 representation  2 processor    0
 ELAPSED TIME =       14.21 s.  vr/fr calculation
      1075 out of       1077 representation  2 processor    0
 Seek representation   3 in pol_diag.dat.   3  1      41
 ELAPSED TIME =       14.22 s.  vr/fr calculation
       215 out of       1077 representation  3 processor    0
 ELAPSED TIME =       14.22 s.  vr/fr calculation
       430 out of       1077 representation  3 processor    0
 ELAPSED TIME =       14.22 s.  vr/fr calculation
       645 out of       1077 representation  3 processor    0
 ELAPSED TIME =       14.22 s.  vr/fr calculation
       860 out of       1077 representation  3 processor    0
 ELAPSED TIME =       14.22 s.  vr/fr calculation
      1075 out of       1077 representation  3 processor    0
 Seek representation   4 in pol_diag.dat.   4  1      40
 ELAPSED TIME =       14.23 s.  vr/fr calculation
       215 out of       1077 representation  4 processor    0
 ELAPSED TIME =       14.23 s.  vr/fr calculation
       430 out of       1077 representation  4 processor    0
 ELAPSED TIME =       14.23 s.  vr/fr calculation
       645 out of       1077 representation  4 processor    0
 ELAPSED TIME =       14.24 s.  vr/fr calculation
       860 out of       1077 representation  4 processor    0
 ELAPSED TIME =       14.24 s.  vr/fr calculation
      1075 out of       1077 representation  4 processor    0
 Seek representation   5 in pol_diag.dat.   5  1      32
 ELAPSED TIME =       14.24 s.  vr/fr calculation
       215 out of       1077 representation  5 processor    0
 ELAPSED TIME =       14.24 s.  vr/fr calculation
       430 out of       1077 representation  5 processor    0
 ELAPSED TIME =       14.24 s.  vr/fr calculation
       645 out of       1077 representation  5 processor    0
 ELAPSED TIME =       14.25 s.  vr/fr calculation
       860 out of       1077 representation  5 processor    0
 ELAPSED TIME =       14.25 s.  vr/fr calculation
      1075 out of       1077 representation  5 processor    0
 Seek representation   6 in pol_diag.dat.   6  1      54
 ELAPSED TIME =       14.26 s.  vr/fr calculation
       215 out of       1077 representation  6 processor    0
 ELAPSED TIME =       14.26 s.  vr/fr calculation
       430 out of       1077 representation  6 processor    0
 ELAPSED TIME =       14.26 s.  vr/fr calculation
       645 out of       1077 representation  6 processor    0
 ELAPSED TIME =       14.27 s.  vr/fr calculation
       860 out of       1077 representation  6 processor    0
 ELAPSED TIME =       14.27 s.  vr/fr calculation
      1075 out of       1077 representation  6 processor    0
 Seek representation   7 in pol_diag.dat.   7  1      54
 ELAPSED TIME =       14.28 s.  vr/fr calculation
       215 out of       1077 representation  7 processor    0
 ELAPSED TIME =       14.28 s.  vr/fr calculation
       430 out of       1077 representation  7 processor    0
 ELAPSED TIME =       14.28 s.  vr/fr calculation
       645 out of       1077 representation  7 processor    0
 ELAPSED TIME =       14.29 s.  vr/fr calculation
       860 out of       1077 representation  7 processor    0
 ELAPSED TIME =       14.29 s.  vr/fr calculation
      1075 out of       1077 representation  7 processor    0
 Seek representation   8 in pol_diag.dat.   8  1      54
 ELAPSED TIME =       14.30 s.  vr/fr calculation
       215 out of       1077 representation  8 processor    0
 ELAPSED TIME =       14.30 s.  vr/fr calculation
       430 out of       1077 representation  8 processor    0
 ELAPSED TIME =       14.31 s.  vr/fr calculation
       645 out of       1077 representation  8 processor    0
 ELAPSED TIME =       14.31 s.  vr/fr calculation
       860 out of       1077 representation  8 processor    0
 ELAPSED TIME =       14.31 s.  vr/fr calculation
      1075 out of       1077 representation  8 processor    0

 Checkpoint control =     0

 ELAPSED TIME =       14.42 s.  Calling exchange
 ELAPSED TIME =       14.42 s.  Creating   64 x   64 x   64 FFT MKL descriptors.
 ELAPSED TIME =       24.89 s. FFT finalized
 ELAPSED TIME =       24.89 s.  Creating   64 x   64 x   64 FFT MKL descriptors.
 ELAPSED TIME =       27.73 s. FFT finalized

 Checkpoint control =    16


-----------------------------------------------------------------
 Working now with representation   1 out of   8

 Seek representation   1 in pol_diag.dat.   1  1      67
 ELAPSED TIME =       27.77 s.  Calling readmatrix kernel_c

 Calculating kernel matrix elements in blocks of        50000 (buffer size) 

  kernel K_x (Hartree/Exchange kernel)
 Using           77  data blocks to store matrix elements.
 ELAPSED TIME =       27.78 s.  Creating   64 x   64 x   64 FFT MKL descriptors.
 ELAPSED TIME =       27.80 s. Starting calculation of kernel
Kernel done!      66840 matrix elements calculated by PE  0 representation  1
 Buffer sizes:            5
       23160       24528        9614        9538           0
 
       50000       50000       50000       50000       50000
 
 ELAPSED TIME =       33.15 s. FFT finalized
  Reconstructing kernel in blocks of        50000  matrix elements
 ELAPSED TIME =       33.17 s.  Calling potential pot_c
 ELAPSED TIME =       33.18 s.  Calling correlation
 CORRELATION , xsum =         1.0000000000 spin    1   1
 CORRELATION , xsum =         1.0000000000 spin    2   1
 ELAPSED TIME =       33.58 s.  Calling readmatrix kernel_f

 Calculating kernel matrix elements in blocks of        50000 (buffer size) 

  kernel K_f (TDLDA kernel)
 Using           77  data blocks to store matrix elements.
 ELAPSED TIME =       33.58 s.  Creating   64 x   64 x   64 FFT MKL descriptors.
 ELAPSED TIME =       33.59 s. Starting calculation of kernel
Kernel done!      66840 matrix elements calculated by PE  0 representation  1
 Buffer sizes:            5
       23160       24528        9614        9538           0
 
       50000       50000       50000       50000       50000
 
 ELAPSED TIME =       33.88 s. FFT finalized
  Reconstructing kernel in blocks of        50000  matrix elements
 ELAPSED TIME =       33.90 s.  Calling potential pot_f
 ELAPSED TIME =       33.90 s.  Calling vertex
 VERTEX , xsum =         1.0000000000 spin    1   1
 VERTEX , xsum =         1.0000000000 spin    2   1

 Checkpoint control =    17


-----------------------------------------------------------------
 Working now with representation   2 out of   8

 Seek representation   2 in pol_diag.dat.   2  1      41
 ELAPSED TIME =       34.52 s.  Calling readmatrix kernel_c

 Calculating kernel matrix elements in blocks of        50000 (buffer size) 

  kernel K_x (Hartree/Exchange kernel)
 Using           51  data blocks to store matrix elements.
 ELAPSED TIME =       34.52 s.  Creating   64 x   64 x   64 FFT MKL descriptors.
 ELAPSED TIME =       34.53 s. Starting calculation of kernel
Kernel done!      31161 matrix elements calculated by PE  0 representation  2
 Buffer sizes:            5
       11696       12544        3429        3492           0
 
       50000       50000       50000       50000       50000
 
 ELAPSED TIME =       37.31 s. FFT finalized
  Reconstructing kernel in blocks of        50000  matrix elements
 ELAPSED TIME =       37.32 s.  Calling potential pot_c
 ELAPSED TIME =       37.33 s.  Calling correlation
 CORRELATION , xsum =         1.0000000000 spin    1   1
 CORRELATION , xsum =         1.0000000000 spin    2   1
 ELAPSED TIME =       37.52 s.  Calling readmatrix kernel_f

 Calculating kernel matrix elements in blocks of        50000 (buffer size) 

  kernel K_f (TDLDA kernel)
 Using           51  data blocks to store matrix elements.
 ELAPSED TIME =       37.52 s.  Creating   64 x   64 x   64 FFT MKL descriptors.
 ELAPSED TIME =       37.53 s. Starting calculation of kernel
Kernel done!      31161 matrix elements calculated by PE  0 representation  2
 Buffer sizes:            5
       11696       12544        3429        3492           0
 
       50000       50000       50000       50000       50000
 
 ELAPSED TIME =       37.68 s. FFT finalized
  Reconstructing kernel in blocks of        50000  matrix elements
 ELAPSED TIME =       37.69 s.  Calling potential pot_f
 ELAPSED TIME =       37.69 s.  Calling vertex
 VERTEX , xsum =         1.0000000000 spin    1   1
 VERTEX , xsum =         1.0000000000 spin    2   1

 Checkpoint control =    18


-----------------------------------------------------------------
 Working now with representation   3 out of   8

 Seek representation   3 in pol_diag.dat.   3  1      41
 ELAPSED TIME =       38.08 s.  Calling readmatrix kernel_c

 Calculating kernel matrix elements in blocks of        50000 (buffer size) 

  kernel K_x (Hartree/Exchange kernel)
 Using           51  data blocks to store matrix elements.
 ELAPSED TIME =       38.08 s.  Creating   64 x   64 x   64 FFT MKL descriptors.
 ELAPSED TIME =       38.09 s. Starting calculation of kernel
Kernel done!      31161 matrix elements calculated by PE  0 representation  3
 Buffer sizes:            5
       11696       12544        3429        3492           0
 
       50000       50000       50000       50000       50000
 
 ELAPSED TIME =       41.80 s. FFT finalized
  Reconstructing kernel in blocks of        50000  matrix elements
 ELAPSED TIME =       41.81 s.  Calling potential pot_c
 ELAPSED TIME =       41.81 s.  Calling correlation
 CORRELATION , xsum =         1.0000000000 spin    1   1
 CORRELATION , xsum =         1.0000000000 spin    2   1
 ELAPSED TIME =       41.99 s.  Calling readmatrix kernel_f

 Calculating kernel matrix elements in blocks of        50000 (buffer size) 

  kernel K_f (TDLDA kernel)
 Using           51  data blocks to store matrix elements.
 ELAPSED TIME =       41.99 s.  Creating   64 x   64 x   64 FFT MKL descriptors.
 ELAPSED TIME =       42.00 s. Starting calculation of kernel
Kernel done!      31161 matrix elements calculated by PE  0 representation  3
 Buffer sizes:            5
       11696       12544        3429        3492           0
 
       50000       50000       50000       50000       50000
 
 ELAPSED TIME =       42.15 s. FFT finalized
  Reconstructing kernel in blocks of        50000  matrix elements
 ELAPSED TIME =       42.15 s.  Calling potential pot_f
 ELAPSED TIME =       42.16 s.  Calling vertex
 VERTEX , xsum =         1.0000000000 spin    1   1
 VERTEX , xsum =         1.0000000000 spin    2   1

 Checkpoint control =    19


-----------------------------------------------------------------
 Working now with representation   4 out of   8

 Seek representation   4 in pol_diag.dat.   4  1      40
 ELAPSED TIME =       42.53 s.  Calling readmatrix kernel_c

 Calculating kernel matrix elements in blocks of        50000 (buffer size) 

  kernel K_x (Hartree/Exchange kernel)
 Using           50  data blocks to store matrix elements.
 ELAPSED TIME =       42.53 s.  Creating   64 x   64 x   64 FFT MKL descriptors.
 ELAPSED TIME =       42.54 s. Starting calculation of kernel
Kernel done!      29956 matrix elements calculated by PE  0 representation  4
 Buffer sizes:            5
       11696       12192        3048        3020           0
 
       50000       50000       50000       50000       50000
 
 ELAPSED TIME =       45.32 s. FFT finalized
  Reconstructing kernel in blocks of        50000  matrix elements
 ELAPSED TIME =       45.33 s.  Calling potential pot_c
 ELAPSED TIME =       45.34 s.  Calling correlation
 CORRELATION , xsum =         1.0000000000 spin    1   1
 CORRELATION , xsum =         1.0000000000 spin    2   1
 ELAPSED TIME =       45.55 s.  Calling readmatrix kernel_f

 Calculating kernel matrix elements in blocks of        50000 (buffer size) 

  kernel K_f (TDLDA kernel)
 Using           50  data blocks to store matrix elements.
 ELAPSED TIME =       45.56 s.  Creating   64 x   64 x   64 FFT MKL descriptors.
 ELAPSED TIME =       45.57 s. Starting calculation of kernel
Kernel done!      29956 matrix elements calculated by PE  0 representation  4
 Buffer sizes:            5
       11696       12192        3048        3020           0
 
       50000       50000       50000       50000       50000
 
 ELAPSED TIME =       45.71 s. FFT finalized
  Reconstructing kernel in blocks of        50000  matrix elements
 ELAPSED TIME =       45.72 s.  Calling potential pot_f
 ELAPSED TIME =       45.72 s.  Calling vertex
 VERTEX , xsum =         1.0000000000 spin    1   1
 VERTEX , xsum =         1.0000000000 spin    2   1

 Checkpoint control =    20


-----------------------------------------------------------------
 Working now with representation   5 out of   8

 Seek representation   5 in pol_diag.dat.   5  1      32
 ELAPSED TIME =       45.94 s.  Calling readmatrix kernel_c

 Calculating kernel matrix elements in blocks of        50000 (buffer size) 

  kernel K_x (Hartree/Exchange kernel)
 Using           42  data blocks to store matrix elements.
 ELAPSED TIME =       45.94 s.  Creating   64 x   64 x   64 FFT MKL descriptors.
 ELAPSED TIME =       45.95 s. Starting calculation of kernel
Kernel done!      21376 matrix elements calculated by PE  0 representation  5
 Buffer sizes:            5
        9142        9520        1360        1354           0
 
       50000       50000       50000       50000       50000
 
 ELAPSED TIME =       48.40 s. FFT finalized
  Reconstructing kernel in blocks of        50000  matrix elements
 ELAPSED TIME =       48.41 s.  Calling potential pot_c
 ELAPSED TIME =       48.41 s.  Calling correlation
 CORRELATION , xsum =         1.0000000000 spin    1   1
 CORRELATION , xsum =         1.0000000000 spin    2   1
 ELAPSED TIME =       48.58 s.  Calling readmatrix kernel_f

 Calculating kernel matrix elements in blocks of        50000 (buffer size) 

  kernel K_f (TDLDA kernel)
 Using           42  data blocks to store matrix elements.
 ELAPSED TIME =       48.59 s.  Creating   64 x   64 x   64 FFT MKL descriptors.
 ELAPSED TIME =       48.62 s. Starting calculation of kernel
Kernel done!      21376 matrix elements calculated by PE  0 representation  5
 Buffer sizes:            5
        9142        9520        1360        1354           0
 
       50000       50000       50000       50000       50000
 
 ELAPSED TIME =       48.75 s. FFT finalized
  Reconstructing kernel in blocks of        50000  matrix elements
 ELAPSED TIME =       48.75 s.  Calling potential pot_f
 ELAPSED TIME =       48.76 s.  Calling vertex
 VERTEX , xsum =         1.0000000000 spin    1   1
 VERTEX , xsum =         1.0000000000 spin    2   1

 Checkpoint control =    21


-----------------------------------------------------------------
 Working now with representation   6 out of   8

 Seek representation   6 in pol_diag.dat.   6  1      54
 ELAPSED TIME =       49.04 s.  Calling readmatrix kernel_c

 Calculating kernel matrix elements in blocks of        50000 (buffer size) 

  kernel K_x (Hartree/Exchange kernel)
 Using           64  data blocks to store matrix elements.
 ELAPSED TIME =       49.04 s.  Creating   64 x   64 x   64 FFT MKL descriptors.
 ELAPSED TIME =       49.05 s. Starting calculation of kernel
Kernel done!      43451 matrix elements calculated by PE  0 representation  6
 Buffer sizes:            5
       17402       17864        4170        4015           0
 
       50000       50000       50000       50000       50000
 
 ELAPSED TIME =       53.38 s. FFT finalized
  Reconstructing kernel in blocks of        50000  matrix elements
 ELAPSED TIME =       53.40 s.  Calling potential pot_c
 ELAPSED TIME =       53.41 s.  Calling correlation
 CORRELATION , xsum =         1.0000000000 spin    1   1
 CORRELATION , xsum =         1.0000000000 spin    2   1
 ELAPSED TIME =       53.75 s.  Calling readmatrix kernel_f

 Calculating kernel matrix elements in blocks of        50000 (buffer size) 

  kernel K_f (TDLDA kernel)
 Using           64  data blocks to store matrix elements.
 ELAPSED TIME =       53.75 s.  Creating   64 x   64 x   64 FFT MKL descriptors.
 ELAPSED TIME =       53.76 s. Starting calculation of kernel
Kernel done!      43451 matrix elements calculated by PE  0 representation  6
 Buffer sizes:            5
       17402       17864        4170        4015           0
 
       50000       50000       50000       50000       50000
 
 ELAPSED TIME =       53.97 s. FFT finalized
  Reconstructing kernel in blocks of        50000  matrix elements
 ELAPSED TIME =       53.97 s.  Calling potential pot_f
 ELAPSED TIME =       53.98 s.  Calling vertex
 VERTEX , xsum =         1.0000000000 spin    1   1
 VERTEX , xsum =         1.0000000000 spin    2   1

 Checkpoint control =    22


-----------------------------------------------------------------
 Working now with representation   7 out of   8

 Seek representation   7 in pol_diag.dat.   7  1      54
 ELAPSED TIME =       54.45 s.  Calling readmatrix kernel_c

 Calculating kernel matrix elements in blocks of        50000 (buffer size) 

  kernel K_x (Hartree/Exchange kernel)
 Using           64  data blocks to store matrix elements.
 ELAPSED TIME =       54.46 s.  Creating   64 x   64 x   64 FFT MKL descriptors.
 ELAPSED TIME =       54.47 s. Starting calculation of kernel
Kernel done!      43451 matrix elements calculated by PE  0 representation  7
 Buffer sizes:            5
       17402       17864        4170        4015           0
 
       50000       50000       50000       50000       50000
 
 ELAPSED TIME =       58.21 s. FFT finalized
  Reconstructing kernel in blocks of        50000  matrix elements
 ELAPSED TIME =       58.22 s.  Calling potential pot_c
 ELAPSED TIME =       58.23 s.  Calling correlation
 CORRELATION , xsum =         1.0000000000 spin    1   1
 CORRELATION , xsum =         1.0000000000 spin    2   1
 ELAPSED TIME =       58.55 s.  Calling readmatrix kernel_f

 Calculating kernel matrix elements in blocks of        50000 (buffer size) 

  kernel K_f (TDLDA kernel)
 Using           64  data blocks to store matrix elements.
 ELAPSED TIME =       58.55 s.  Creating   64 x   64 x   64 FFT MKL descriptors.
 ELAPSED TIME =       58.57 s. Starting calculation of kernel
Kernel done!      43451 matrix elements calculated by PE  0 representation  7
 Buffer sizes:            5
       17402       17864        4170        4015           0
 
       50000       50000       50000       50000       50000
 
 ELAPSED TIME =       58.87 s. FFT finalized
  Reconstructing kernel in blocks of        50000  matrix elements
 ELAPSED TIME =       58.88 s.  Calling potential pot_f
 ELAPSED TIME =       58.88 s.  Calling vertex
 VERTEX , xsum =         1.0000000000 spin    1   1
 VERTEX , xsum =         1.0000000000 spin    2   1

 Checkpoint control =    23


-----------------------------------------------------------------
 Working now with representation   8 out of   8

 Seek representation   8 in pol_diag.dat.   8  1      54
 ELAPSED TIME =       59.24 s.  Calling readmatrix kernel_c

 Calculating kernel matrix elements in blocks of        50000 (buffer size) 

  kernel K_x (Hartree/Exchange kernel)
 Using           64  data blocks to store matrix elements.
 ELAPSED TIME =       59.24 s.  Creating   64 x   64 x   64 FFT MKL descriptors.
 ELAPSED TIME =       59.25 s. Starting calculation of kernel
Kernel done!      43775 matrix elements calculated by PE  0 representation  8
 Buffer sizes:            5
       17402       18128        4170        4075           0
 
       50000       50000       50000       50000       50000
 
 ELAPSED TIME =       63.23 s. FFT finalized
  Reconstructing kernel in blocks of        50000  matrix elements
 ELAPSED TIME =       63.25 s.  Calling potential pot_c
 ELAPSED TIME =       63.26 s.  Calling correlation
 CORRELATION , xsum =         1.0000000000 spin    1   1
 CORRELATION , xsum =         1.0000000000 spin    2   1
 ELAPSED TIME =       63.54 s.  Calling readmatrix kernel_f

 Calculating kernel matrix elements in blocks of        50000 (buffer size) 

  kernel K_f (TDLDA kernel)
 Using           64  data blocks to store matrix elements.
 ELAPSED TIME =       63.54 s.  Creating   64 x   64 x   64 FFT MKL descriptors.
 ELAPSED TIME =       63.56 s. Starting calculation of kernel
Kernel done!      43775 matrix elements calculated by PE  0 representation  8
 Buffer sizes:            5
       17402       18128        4170        4075           0
 
       50000       50000       50000       50000       50000
 
 ELAPSED TIME =       63.75 s. FFT finalized
  Reconstructing kernel in blocks of        50000  matrix elements
 ELAPSED TIME =       63.76 s.  Calling potential pot_f
 ELAPSED TIME =       63.76 s.  Calling vertex
 VERTEX , xsum =         1.0000000000 spin    1   1
 VERTEX , xsum =         1.0000000000 spin    2   1

 Checkpoint control =    24


 Checkpoint control =    24


 Found wpol0.dat file. Calculating static correction 


 Reading static correction from file wpol0.dat.
      r          rho        Wpol0_v          Wpol0_f
   0   0   0      0.4724     -1.1050      0.2262      0.3320
   0   1   0      0.3821     -0.9860      0.1835      0.3656
   1   0   0      0.3821     -0.9860      0.1835      0.3656
   0   0   1      0.3821     -0.9859      0.1835      0.3656
   1   1   0      0.2279     -0.7268      0.1152      0.2648
   0   1   1      0.2279     -0.7268      0.1152      0.2648
   1   0   1      0.2279     -0.7268      0.1152      0.2648
   2   0   0      0.1431     -0.5477      0.0836      0.2031
   0   0   2      0.1431     -0.5474      0.0833      0.2031
   0   2   0      0.1431     -0.5477      0.0835      0.2031
 

 Checkpoint control =    32

 ELAPSED TIME =       64.22 s.  All matrix elements calculated. Start printout
 ELAPSED TIME =       64.25 s.  Calling rotate.
 
 Spin  1
 Maximum difference between input and output densities : 
    0.2634105962E-01 a.u.^-3
 Standard deviation of the difference between densities : 
    0.9862776452E-03 a.u.^-3
 Old integrated charge =      4.000000000    
 New integrated charge =      4.000000000    

 Spin  2
 Maximum difference between input and output densities : 
    0.2493731728E-02 a.u.^-3
 Standard deviation of the difference between densities : 
    0.8896117034E-04 a.u.^-3
 Old integrated charge =      1.000000000    
 New integrated charge =      1.000000000    

 ELAPSED TIME =       64.29 s.  Creating   64 x   64 x   64 FFT MKL descriptors.
 ELAPSED TIME =       64.35 s. FFT finalized
 ELAPSED TIME =       64.36 s.  Creating   64 x   64 x   64 FFT MKL descriptors.
 ELAPSED TIME =       64.80 s. FFT finalized
 ELAPSED TIME =       64.80 s.  Creating   64 x   64 x   64 FFT MKL descriptors.
 ELAPSED TIME =       65.18 s. FFT finalized
 
                  Eigenvalue Energy =        -6.7291101023 [Ry]
                     Kinetic Energy =        13.3276987566 [Ry]
       Local Pseudopotential Energy =       -48.3024585042 [Ry]
   Non-local Pseudopotential Energy =         3.2507872333 [Ry]
                     Ion-ion Energy =         0.0000000000 [Ry]
                       Total Energy =       -19.2265413083 [Ry]
 Total energy excludes Exc - Int_{Vxc*rho}/2 term.
 WARNING! Pseudopotential energies and total energy are
 incorrect if Martins_old pseudopotentials are used.
 

 Iteration     0. Maximum potential (eV) =    9.13302


-----------------------------------------------------------------
                               CPU [s]     WALL [s]           #

 SETUP_S:                         0.065        0.070          1
 KERNEL:                         31.119       16.507         24
 DIAG_POL:                        0.000        0.000          0
 WPOL_0:                         12.957        6.650          1
 EXCHANGE:                       13.312        6.679          2
 POTENTIAL:                       0.076        0.037         16
 CORRELATION:                     2.090        1.275          8
 VERTEX:                          3.103        2.219          8
 
 ROTATE:                          0.115        0.064          1
 POISSON_FFT:                    41.934       21.055       3108
 EIGENSOLVER:                     0.000        0.000          0
 INTEGRATION:                     3.542        2.303       1532

                TOTAL            65.238       35.542

 Finished 2009 Mar 13 14: 8:19  -240 UTC
-----------------------------------------------------------------
