
=================================================================

 SIGMA   2009 Mar 10 13:18: 0  -420 UTC

 Running serial version (no MPI)

Version date : Fri Jan  2 17:07:49 EST 2009
architecture = sp5_nersc
pre-processing options = -DUSEESSL 
compilation options = -O3 -qextname=flush -qarch=auto -qtune=auto -qhot -qalias=noaryovrlp -Q -qautodbl=dbl4 -q64

=================================================================


 Electronic structure data :
 ---------------------------

 Reading electron wavefunctions from file GWC

 Spin unpolarized calculation.

 K-point =      0.245000     0.155000     0.465000
  Number of occupied bands, spin  1  :  4
 DFT Eigenvalues (eV), spin  1  :
   5.45  10.19  12.06  13.85  18.68  18.85  20.37  21.16  23.39  25.67
  27.58  28.02
 
 K-point =      0.245000     0.155000     0.965000
  Number of occupied bands, spin  1  :  4
 DFT Eigenvalues (eV), spin  1  :
   4.48  12.13  13.57  13.96  17.22  19.29  20.16  20.52  23.23  24.47
  25.90  27.51
 
 K-point =      0.245000     0.655000     0.465000
  Number of occupied bands, spin  1  :  4
 DFT Eigenvalues (eV), spin  1  :
   7.16   8.52  11.30  12.10  18.90  19.65  20.19  22.11  24.60  26.63
  28.04  29.77
 
 K-point =      0.245000     0.655000     0.965000
  Number of occupied bands, spin  1  :  4
 DFT Eigenvalues (eV), spin  1  :
   6.31   9.18  11.28  13.56  17.57  20.58  21.50  22.13  23.20  23.36
  28.43  30.05
 
 K-point =      0.745000     0.155000     0.465000
  Number of occupied bands, spin  1  :  4
 DFT Eigenvalues (eV), spin  1  :
   7.30   8.37  11.19  12.20  18.40  20.19  20.75  21.54  24.59  26.30
  28.29  29.89
 
 K-point =      0.745000     0.155000     0.965000
  Number of occupied bands, spin  1  :  4
 DFT Eigenvalues (eV), spin  1  :
   5.00  10.75  12.46  14.42  18.39  19.14  20.02  21.04  22.29  25.77
  26.52  27.70
 
 K-point =      0.745000     0.655000     0.465000
  Number of occupied bands, spin  1  :  4
 DFT Eigenvalues (eV), spin  1  :
   5.96   9.58  11.59  13.51  18.36  19.36  20.79  21.77  23.82  24.47
  28.09  29.35
 
 K-point =      0.745000     0.655000     0.965000
  Number of occupied bands, spin  1  :  4
 DFT Eigenvalues (eV), spin  1  :
   5.02  11.16  13.02  13.35  16.83  18.45  21.11  21.64  24.47  25.38
  26.96  28.52
 
 Maximum value of electron density (a.u.^-3) =   0.87189890E-01
 Total number of electrons =     8.0000

 MPI data :
 ----------

  Group partition information: 
  Distributing  1  processors among  1  groups.
  Each group contains  1  processors.
  I am processor rank  0  in group  0
  I am master in my group, with master rank  0
  My group has representations: 
    1

  Wavefunction partition information: 
  Distributing  1  processors among  1  groups.
  Each group contains  1  processors.
  I am processor rank  0  in group  0
  I am master in my group, with master rank    0

 Atom data :
 -----------

 Atom coordinates input in lattice vector units.

  Atomic coordinates (all atoms) are :
           x [a.u.]          y [a.u.]          z [a.u.]           Type
   1      -1.282500000      -1.282500000      -1.282500000         Si
   2       1.282500000       1.282500000       1.282500000         Si

 Total number of atoms =    2
 Total number of atom types =    1

 Pseudopotential messages, element Si :
 


--------------------------------------
 Pseudopotential format : FHIPP
 Pseudopotential file for this atom type is Si_POT.DAT

 logarithmic parameters of pseudopot. radial grid
 r(i) = a*[Exp(b(i-1)) - 1)]
 a (a.u.) = 0.435668E-03 b = 0.243999E-01 c =  0.00000     nr =      496

 # of pseudopot= 3, Local component is l = 2
 Core radius (a.u.) =  1.97

 Normalization check and Kleinman-Bylander Integral:
                        s             p             d
 Normalization        1.00009923    1.00009923    1.05082652
 K-B Integral (Ry)    0.67750605    0.26926130   -5.36760663

 Grid data :
 -----------

 Gradients and Laplacians calculated with FFT

  BULK BOUNDARY CONDITIONS !

 Unit lattice vectors (a.u.) = 
   0.000000000000000   5.130000000000000   5.130000000000000
   5.130000000000000   0.000000000000000   5.130000000000000
   5.130000000000000   5.130000000000000   0.000000000000000

 Grid spacing (a.u.) =         0.453432        0.453432        0.453432

 Volume of periodic cell (a.u.^3) =       270.011394

 Real-space FFT grid =   16  16  16  18

 Long-wavelength Coulomb energy (eV) =         5.2234453789

 No Coulomb truncation

 Full grid has       4096 points.
 Irreducible wedge has       4096 points.

 ELAPSED TIME =        0.00 s. paratec_wfn:  reading wave functions

 Read wavefunctions for         12 levels, spin    1 k-point    1

 Read wavefunctions for         12 levels, spin    1 k-point    2

 Read wavefunctions for         12 levels, spin    1 k-point    3

 Read wavefunctions for         12 levels, spin    1 k-point    4

 Read wavefunctions for         12 levels, spin    1 k-point    5

 Read wavefunctions for         12 levels, spin    1 k-point    6

 Read wavefunctions for         12 levels, spin    1 k-point    7

 Read wavefunctions for         12 levels, spin    1 k-point    8
 ELAPSED TIME =        0.03 s. FFT finalized

-----------------------------------------------------------------


-----------------------------------------------------------------

 ELAPSED TIME =        0.06 s. Calling setup_s
 ELAPSED TIME =        0.08 s. FFT finalized
 ELAPSED TIME =        0.14 s. FFT finalized
 ELAPSED TIME =        0.21 s. FFT finalized
 ELAPSED TIME =        0.27 s. FFT finalized
 ELAPSED TIME =        0.34 s. FFT finalized
 ELAPSED TIME =        0.40 s. FFT finalized
 ELAPSED TIME =        0.46 s. FFT finalized
 ELAPSED TIME =        0.54 s. FFT finalized
 
  Matching k-points : 
 q-point #  1 =         0.0000000000        0.0000000000        0.0000000000
  k-point and (k-q) point 
    0.2450    0.1550    0.4650         0.2450    0.1550    0.4650
    0.2450    0.1550    0.9650         0.2450    0.1550    0.9650
    0.2450    0.6550    0.4650         0.2450    0.6550    0.4650
    0.2450    0.6550    0.9650         0.2450    0.6550    0.9650
    0.7450    0.1550    0.4650         0.7450    0.1550    0.4650
    0.7450    0.1550    0.9650         0.7450    0.1550    0.9650
    0.7450    0.6550    0.4650         0.7450    0.6550    0.4650
    0.7450    0.6550    0.9650         0.7450    0.6550    0.9650
 q-point #  2 =         0.0000000000        0.0000000000        0.5000000000
  k-point and (k-q) point 
    0.2450    0.1550    0.4650         0.2450    0.1550    0.9650
    0.2450    0.1550    0.9650         0.2450    0.1550    0.4650
    0.2450    0.6550    0.4650         0.2450    0.6550    0.9650
    0.2450    0.6550    0.9650         0.2450    0.6550    0.4650
    0.7450    0.1550    0.4650         0.7450    0.1550    0.9650
    0.7450    0.1550    0.9650         0.7450    0.1550    0.4650
    0.7450    0.6550    0.4650         0.7450    0.6550    0.9650
    0.7450    0.6550    0.9650         0.7450    0.6550    0.4650
 q-point #  3 =         0.0000000000        0.5000000000        0.0000000000
  k-point and (k-q) point 
    0.2450    0.1550    0.4650         0.2450    0.6550    0.4650
    0.2450    0.1550    0.9650         0.2450    0.6550    0.9650
    0.2450    0.6550    0.4650         0.2450    0.1550    0.4650
    0.2450    0.6550    0.9650         0.2450    0.1550    0.9650
    0.7450    0.1550    0.4650         0.7450    0.6550    0.4650
    0.7450    0.1550    0.9650         0.7450    0.6550    0.9650
    0.7450    0.6550    0.4650         0.7450    0.1550    0.4650
    0.7450    0.6550    0.9650         0.7450    0.1550    0.9650
 q-point #  4 =         0.0000000000        0.5000000000        0.5000000000
  k-point and (k-q) point 
    0.2450    0.1550    0.4650         0.2450    0.6550    0.9650
    0.2450    0.1550    0.9650         0.2450    0.6550    0.4650
    0.2450    0.6550    0.4650         0.2450    0.1550    0.9650
    0.2450    0.6550    0.9650         0.2450    0.1550    0.4650
    0.7450    0.1550    0.4650         0.7450    0.6550    0.9650
    0.7450    0.1550    0.9650         0.7450    0.6550    0.4650
    0.7450    0.6550    0.4650         0.7450    0.1550    0.9650
    0.7450    0.6550    0.9650         0.7450    0.1550    0.4650
 q-point #  5 =         0.5000000000        0.0000000000        0.0000000000
  k-point and (k-q) point 
    0.2450    0.1550    0.4650         0.7450    0.1550    0.4650
    0.2450    0.1550    0.9650         0.7450    0.1550    0.9650
    0.2450    0.6550    0.4650         0.7450    0.6550    0.4650
    0.2450    0.6550    0.9650         0.7450    0.6550    0.9650
    0.7450    0.1550    0.4650         0.2450    0.1550    0.4650
    0.7450    0.1550    0.9650         0.2450    0.1550    0.9650
    0.7450    0.6550    0.4650         0.2450    0.6550    0.4650
    0.7450    0.6550    0.9650         0.2450    0.6550    0.9650
 q-point #  6 =         0.5000000000        0.0000000000        0.5000000000
  k-point and (k-q) point 
    0.2450    0.1550    0.4650         0.7450    0.1550    0.9650
    0.2450    0.1550    0.9650         0.7450    0.1550    0.4650
    0.2450    0.6550    0.4650         0.7450    0.6550    0.9650
    0.2450    0.6550    0.9650         0.7450    0.6550    0.4650
    0.7450    0.1550    0.4650         0.2450    0.1550    0.9650
    0.7450    0.1550    0.9650         0.2450    0.1550    0.4650
    0.7450    0.6550    0.4650         0.2450    0.6550    0.9650
    0.7450    0.6550    0.9650         0.2450    0.6550    0.4650
 q-point #  7 =         0.5000000000        0.5000000000        0.0000000000
  k-point and (k-q) point 
    0.2450    0.1550    0.4650         0.7450    0.6550    0.4650
    0.2450    0.1550    0.9650         0.7450    0.6550    0.9650
    0.2450    0.6550    0.4650         0.7450    0.1550    0.4650
    0.2450    0.6550    0.9650         0.7450    0.1550    0.9650
    0.7450    0.1550    0.4650         0.2450    0.6550    0.4650
    0.7450    0.1550    0.9650         0.2450    0.6550    0.9650
    0.7450    0.6550    0.4650         0.2450    0.1550    0.4650
    0.7450    0.6550    0.9650         0.2450    0.1550    0.9650
 q-point #  8 =         0.5000000000        0.5000000000        0.5000000000
  k-point and (k-q) point 
    0.2450    0.1550    0.4650         0.7450    0.6550    0.9650
    0.2450    0.1550    0.9650         0.7450    0.6550    0.4650
    0.2450    0.6550    0.4650         0.7450    0.1550    0.9650
    0.2450    0.6550    0.9650         0.7450    0.1550    0.4650
    0.7450    0.1550    0.4650         0.2450    0.6550    0.9650
    0.7450    0.1550    0.9650         0.2450    0.6550    0.4650
    0.7450    0.6550    0.4650         0.2450    0.1550    0.9650
    0.7450    0.6550    0.9650         0.2450    0.1550    0.4650

 k-point     0.2450    0.1550    0.4650   1
  Calculating  12  diagonal matrix elements
  and  66  off-diagonal matrix elements.
  Calculating  12  diagonal matrix elements
  and  66  off-diagonal matrix elements beyond COHSEX.

 k-point     0.2450    0.1550    0.9650   2
  Calculating  12  diagonal matrix elements
  and  66  off-diagonal matrix elements.
  Calculating  12  diagonal matrix elements
  and  66  off-diagonal matrix elements beyond COHSEX.

 k-point     0.2450    0.6550    0.4650   3
  Calculating  12  diagonal matrix elements
  and  66  off-diagonal matrix elements.
  Calculating  12  diagonal matrix elements
  and  66  off-diagonal matrix elements beyond COHSEX.

 k-point     0.2450    0.6550    0.9650   4
  Calculating  12  diagonal matrix elements
  and  66  off-diagonal matrix elements.
  Calculating  12  diagonal matrix elements
  and  66  off-diagonal matrix elements beyond COHSEX.

 k-point     0.7450    0.1550    0.4650   5
  Calculating  12  diagonal matrix elements
  and  66  off-diagonal matrix elements.
  Calculating  12  diagonal matrix elements
  and  66  off-diagonal matrix elements beyond COHSEX.

 k-point     0.7450    0.1550    0.9650   6
  Calculating  12  diagonal matrix elements
  and  66  off-diagonal matrix elements.
  Calculating  12  diagonal matrix elements
  and  66  off-diagonal matrix elements beyond COHSEX.

 k-point     0.7450    0.6550    0.4650   7
  Calculating  12  diagonal matrix elements
  and  66  off-diagonal matrix elements.
  Calculating  12  diagonal matrix elements
  and  66  off-diagonal matrix elements beyond COHSEX.

 k-point     0.7450    0.6550    0.9650   8
  Calculating  12  diagonal matrix elements
  and  66  off-diagonal matrix elements.
  Calculating  12  diagonal matrix elements
  and  66  off-diagonal matrix elements beyond COHSEX.
  Calculating exchange matrix elements, spin  1
 Functional : Slater exchange
 ELAPSED TIME =        0.59 s. FFT finalized
  Calculating correlation matrix elements, spin  1
 Functional : Perdew & Zunger
 ELAPSED TIME =        0.60 s. FFT finalized
  Calculating exchange matrix elements, spin  1
 Functional : Slater exchange
 ELAPSED TIME =        0.61 s. FFT finalized
  Calculating correlation matrix elements, spin  1
 Functional : Perdew & Zunger
 ELAPSED TIME =        0.62 s. FFT finalized

 V_xc MATRIX ELEMENTS (eV): 
   n     E_dft     E_0       V_xc      V_x       V_c
   1     5.448     5.448   -10.589    -9.134    -1.455
   2    10.187    10.187   -10.753    -9.287    -1.466
   3    12.056    12.056   -10.225    -8.795    -1.430
   4    13.849    13.849   -10.782    -9.314    -1.468
   5    18.678    18.678    -9.994    -8.577    -1.416
   6    18.851    18.851    -9.793    -8.392    -1.401
   7    20.375    20.375    -9.694    -8.300    -1.394
   8    21.155    21.155   -10.277    -8.843    -1.434
   9    23.388    23.388    -9.933    -8.522    -1.411
  10    25.674    25.674    -9.610    -8.224    -1.386
  11    27.582    27.582    -9.860    -8.457    -1.404
  12    28.023    28.023    -9.590    -8.203    -1.387
-----------------------------------------------------------------

  Calculating exchange matrix elements, spin  1
 Functional : Slater exchange
 ELAPSED TIME =        0.63 s. FFT finalized
  Calculating correlation matrix elements, spin  1
 Functional : Perdew & Zunger
 ELAPSED TIME =        0.64 s. FFT finalized
  Calculating exchange matrix elements, spin  1
 Functional : Slater exchange
 ELAPSED TIME =        0.65 s. FFT finalized
  Calculating correlation matrix elements, spin  1
 Functional : Perdew & Zunger
 ELAPSED TIME =        0.66 s. FFT finalized
  Calculating exchange matrix elements, spin  1
 Functional : Slater exchange
 ELAPSED TIME =        0.67 s. FFT finalized
  Calculating correlation matrix elements, spin  1
 Functional : Perdew & Zunger
 ELAPSED TIME =        0.68 s. FFT finalized

 V_xc MATRIX ELEMENTS (eV): 
   n     E_dft     E_0       V_xc      V_x       V_c
   1     4.476     4.476   -10.478    -9.030    -1.448
   2    12.126    12.126   -10.922    -9.445    -1.477
   3    13.566    13.566   -10.648    -9.189    -1.459
   4    13.962    13.962   -10.828    -9.358    -1.471
   5    17.224    17.224    -9.636    -8.245    -1.391
   6    19.294    19.294    -9.664    -8.271    -1.394
   7    20.158    20.158   -10.156    -8.730    -1.426
   8    20.523    20.523   -10.507    -9.056    -1.451
   9    23.231    23.231   -10.452    -9.006    -1.446
  10    24.472    24.472   -10.047    -8.626    -1.421
  11    25.901    25.901    -8.639    -7.325    -1.314
  12    27.508    27.508    -8.537    -7.226    -1.312
-----------------------------------------------------------------

  Calculating exchange matrix elements, spin  1
 Functional : Slater exchange
 ELAPSED TIME =        0.69 s. FFT finalized
  Calculating correlation matrix elements, spin  1
 Functional : Perdew & Zunger
 ELAPSED TIME =        0.70 s. FFT finalized
  Calculating exchange matrix elements, spin  1
 Functional : Slater exchange
 ELAPSED TIME =        0.71 s. FFT finalized
  Calculating correlation matrix elements, spin  1
 Functional : Perdew & Zunger
 ELAPSED TIME =        0.72 s. FFT finalized
  Calculating exchange matrix elements, spin  1
 Functional : Slater exchange
 ELAPSED TIME =        0.73 s. FFT finalized
  Calculating correlation matrix elements, spin  1
 Functional : Perdew & Zunger
 ELAPSED TIME =        0.74 s. FFT finalized

 V_xc MATRIX ELEMENTS (eV): 
   n     E_dft     E_0       V_xc      V_x       V_c
   1     7.162     7.162   -10.812    -9.342    -1.470
   2     8.517     8.517   -10.862    -9.389    -1.473
   3    11.305    11.305    -9.991    -8.577    -1.414
   4    12.095    12.095   -10.160    -8.734    -1.426
   5    18.904    18.904    -9.675    -8.283    -1.392
   6    19.647    19.647    -9.650    -8.261    -1.389
   7    20.191    20.191   -10.092    -8.668    -1.423
   8    22.113    22.113   -10.029    -8.611    -1.418
   9    24.600    24.600   -10.460    -9.014    -1.446
  10    26.631    26.631   -10.411    -8.967    -1.443
  11    28.036    28.036   -10.196    -8.768    -1.429
  12    29.774    29.774    -9.541    -8.160    -1.381
-----------------------------------------------------------------

  Calculating exchange matrix elements, spin  1
 Functional : Slater exchange
 ELAPSED TIME =        0.75 s. FFT finalized
  Calculating correlation matrix elements, spin  1
 Functional : Perdew & Zunger
 ELAPSED TIME =        0.76 s. FFT finalized
  Calculating exchange matrix elements, spin  1
 Functional : Slater exchange
 ELAPSED TIME =        0.77 s. FFT finalized
  Calculating correlation matrix elements, spin  1
 Functional : Perdew & Zunger
 ELAPSED TIME =        0.78 s. FFT finalized
  Calculating exchange matrix elements, spin  1
 Functional : Slater exchange
 ELAPSED TIME =        0.79 s. FFT finalized
  Calculating correlation matrix elements, spin  1
 Functional : Perdew & Zunger
 ELAPSED TIME =        0.80 s. FFT finalized

 V_xc MATRIX ELEMENTS (eV): 
   n     E_dft     E_0       V_xc      V_x       V_c
   1     6.313     6.313   -10.711    -9.248    -1.463
   2     9.184     9.184   -10.714    -9.250    -1.463
   3    11.276    11.276   -10.038    -8.621    -1.418
   4    13.559    13.559   -10.787    -9.319    -1.468
   5    17.572    17.572    -9.372    -7.999    -1.373
   6    20.579    20.579   -10.075    -8.654    -1.421
   7    21.499    21.499   -10.214    -8.784    -1.430
   8    22.135    22.135    -9.918    -8.510    -1.408
   9    23.204    23.204    -9.982    -8.568    -1.414
  10    23.363    23.363    -9.967    -8.553    -1.414
  11    28.429    28.429    -8.690    -7.369    -1.321
  12    30.046    30.046    -9.184    -7.830    -1.355
-----------------------------------------------------------------

  Calculating exchange matrix elements, spin  1
 Functional : Slater exchange
 ELAPSED TIME =        0.81 s. FFT finalized
  Calculating correlation matrix elements, spin  1
 Functional : Perdew & Zunger
 ELAPSED TIME =        0.82 s. FFT finalized
  Calculating exchange matrix elements, spin  1
 Functional : Slater exchange
 ELAPSED TIME =        0.84 s. FFT finalized
  Calculating correlation matrix elements, spin  1
 Functional : Perdew & Zunger
 ELAPSED TIME =        0.85 s. FFT finalized
  Calculating exchange matrix elements, spin  1
 Functional : Slater exchange
 ELAPSED TIME =        0.86 s. FFT finalized
  Calculating correlation matrix elements, spin  1
 Functional : Perdew & Zunger
 ELAPSED TIME =        0.87 s. FFT finalized

 V_xc MATRIX ELEMENTS (eV): 
   n     E_dft     E_0       V_xc      V_x       V_c
   1     7.298     7.298   -10.847    -9.374    -1.473
   2     8.370     8.370   -10.830    -9.358    -1.471
   3    11.186    11.186    -9.945    -8.534    -1.411
   4    12.202    12.202   -10.219    -8.789    -1.430
   5    18.402    18.402    -9.610    -8.222    -1.388
   6    20.190    20.190    -9.692    -8.300    -1.392
   7    20.746    20.746   -10.091    -8.668    -1.423
   8    21.544    21.544   -10.034    -8.616    -1.418
   9    24.590    24.590   -10.446    -9.001    -1.445
  10    26.297    26.297   -10.335    -8.896    -1.438
  11    28.295    28.295   -10.243    -8.812    -1.432
  12    29.894    29.894    -9.592    -8.207    -1.385
-----------------------------------------------------------------

  Calculating exchange matrix elements, spin  1
 Functional : Slater exchange
 ELAPSED TIME =        0.88 s. FFT finalized
  Calculating correlation matrix elements, spin  1
 Functional : Perdew & Zunger
 ELAPSED TIME =        0.88 s. FFT finalized
  Calculating exchange matrix elements, spin  1
 Functional : Slater exchange
 ELAPSED TIME =        0.89 s. FFT finalized
  Calculating correlation matrix elements, spin  1
 Functional : Perdew & Zunger
 ELAPSED TIME =        0.90 s. FFT finalized
  Calculating exchange matrix elements, spin  1
 Functional : Slater exchange
 ELAPSED TIME =        0.91 s. FFT finalized
  Calculating correlation matrix elements, spin  1
 Functional : Perdew & Zunger
 ELAPSED TIME =        0.92 s. FFT finalized

 V_xc MATRIX ELEMENTS (eV): 
   n     E_dft     E_0       V_xc      V_x       V_c
   1     5.002     5.002   -10.540    -9.089    -1.452
   2    10.747    10.747   -10.744    -9.278    -1.465
   3    12.463    12.463   -10.307    -8.871    -1.436
   4    14.422    14.422   -11.025    -9.542    -1.483
   5    18.393    18.393    -9.921    -8.509    -1.412
   6    19.139    19.139   -10.009    -8.592    -1.417
   7    20.020    20.020   -10.186    -8.758    -1.428
   8    21.042    21.042    -9.701    -8.307    -1.394
   9    22.294    22.294    -9.721    -8.324    -1.397
  10    25.774    25.774    -9.029    -7.685    -1.344
  11    26.521    26.521   -10.423    -8.978    -1.445
  12    27.698    27.698    -9.064    -7.716    -1.348
-----------------------------------------------------------------

  Calculating exchange matrix elements, spin  1
 Functional : Slater exchange
 ELAPSED TIME =        0.93 s. FFT finalized
  Calculating correlation matrix elements, spin  1
 Functional : Perdew & Zunger
 ELAPSED TIME =        0.94 s. FFT finalized
  Calculating exchange matrix elements, spin  1
 Functional : Slater exchange
 ELAPSED TIME =        0.95 s. FFT finalized
  Calculating correlation matrix elements, spin  1
 Functional : Perdew & Zunger
 ELAPSED TIME =        0.96 s. FFT finalized
  Calculating exchange matrix elements, spin  1
 Functional : Slater exchange
 ELAPSED TIME =        0.97 s. FFT finalized
  Calculating correlation matrix elements, spin  1
 Functional : Perdew & Zunger
 ELAPSED TIME =        0.98 s. FFT finalized

 V_xc MATRIX ELEMENTS (eV): 
   n     E_dft     E_0       V_xc      V_x       V_c
   1     5.957     5.957   -10.660    -9.200    -1.460
   2     9.577     9.577   -10.739    -9.274    -1.465
   3    11.591    11.591   -10.117    -8.694    -1.423
   4    13.512    13.512   -10.674    -9.214    -1.461
   5    18.362    18.362    -9.694    -8.298    -1.395
   6    19.362    19.362    -9.924    -8.514    -1.410
   7    20.795    20.795    -9.828    -8.425    -1.404
   8    21.767    21.767   -10.275    -8.842    -1.433
   9    23.816    23.816    -9.986    -8.571    -1.414
  10    24.468    24.468    -9.950    -8.538    -1.411
  11    28.088    28.088    -8.783    -7.455    -1.328
  12    29.350    29.350   -10.226    -8.795    -1.431
-----------------------------------------------------------------

  Calculating exchange matrix elements, spin  1
 Functional : Slater exchange
 ELAPSED TIME =        0.99 s. FFT finalized
  Calculating correlation matrix elements, spin  1
 Functional : Perdew & Zunger
 ELAPSED TIME =        1.00 s. FFT finalized
  Calculating exchange matrix elements, spin  1
 Functional : Slater exchange
 ELAPSED TIME =        1.02 s. FFT finalized
  Calculating correlation matrix elements, spin  1
 Functional : Perdew & Zunger
 ELAPSED TIME =        1.03 s. FFT finalized
  Calculating exchange matrix elements, spin  1
 Functional : Slater exchange
 ELAPSED TIME =        1.03 s. FFT finalized
  Calculating correlation matrix elements, spin  1
 Functional : Perdew & Zunger
 ELAPSED TIME =        1.04 s. FFT finalized

 V_xc MATRIX ELEMENTS (eV): 
   n     E_dft     E_0       V_xc      V_x       V_c
   1     5.024     5.024   -10.523    -9.072    -1.451
   2    11.159    11.159   -10.955    -9.475    -1.480
   3    13.019    13.019   -10.530    -9.079    -1.451
   4    13.353    13.353   -10.695    -9.233    -1.462
   5    16.834    16.834    -9.489    -8.109    -1.381
   6    18.452    18.452    -9.215    -7.853    -1.362
   7    21.114    21.114   -10.454    -9.008    -1.447
   8    21.641    21.641   -10.547    -9.094    -1.453
   9    24.470    24.470   -10.512    -9.062    -1.450
  10    25.379    25.379   -10.205    -8.773    -1.432
  11    26.963    26.963    -8.889    -7.556    -1.333
  12    28.517    28.517    -8.692    -7.370    -1.322
-----------------------------------------------------------------

  Calculating exchange matrix elements, spin  1
 Functional : Slater exchange
 ELAPSED TIME =        1.05 s. FFT finalized
  Calculating correlation matrix elements, spin  1
 Functional : Perdew & Zunger
 ELAPSED TIME =        1.07 s. FFT finalized
 ELAPSED TIME =        1.13 s. FFT finalized
 ELAPSED TIME =        1.23 s. FFT finalized
 ELAPSED TIME =        1.32 s. FFT finalized
 ELAPSED TIME =        1.42 s. FFT finalized
 ELAPSED TIME =        1.52 s. FFT finalized
 ELAPSED TIME =        1.61 s. FFT finalized
 ELAPSED TIME =        1.71 s. FFT finalized
 ELAPSED TIME =        1.81 s. FFT finalized
 
 WARNING! Local pseudopotential energy is wrong in periodic systems
 WARNING! Ion-ion pseudopotential energy is wrong in periodic systems
 WARNING! Total pseudopotential energy is wrong in periodic systems
 
                  Eigenvalue Energy =         6.0629650230 [Ry]
                     Kinetic Energy =        -5.3068548275 [Ry]
       Local Pseudopotential Energy =         0.0000000000 [Ry]
   Non-local Pseudopotential Energy =         0.5414388378 [Ry]
                     Ion-ion Energy =         0.0000000000 [Ry]
                       Total Energy =         0.6487745166 [Ry]
 Total energy excludes Exc - Int_{Vxc*rho}/2 term.
 

-----------------------------------------------------------------

 Self-energy input data: 
 -----------------------

 Number of transitions per representation in TDLDA polarizabillity:
     256     256     256     256     256     256     256     256
 total =       2048

 No energy cutoff in TDLDA polarizability

 LDA kernel is not included in polarizability

 Calculating TDLDA polarizability within the Tamm-Dancoff approximation.

 Sum rule not renormalized

 Order of highest LDA state included in Green function =    12
 Order of highest LDA state included in COHSEX approximation =    12

 Energy resolution in energy poles, self-energy (eV) =  1.361    

 Energy range used to calculate self-energy  =    20.0000 eV 

 Number of data points used to calculate self-energy =    21

 Calculating < n_1 | Sigma | n_2 > at the energy of orbital n_1

 Calculating W_pol in static limit with nr =  4093
 Fraction of electron density within nr =  99.9907286993796021  %
 Disk space used =     127.91 MB

 Memory needed to store wavefunctions :       6.00 MB/proc.
 Memory needed to calculate kernel matrix elements :       0.31 MB/proc.
 Memory needed for diagonalization :       1.50 MB/proc.
 Memory needed in self-energy calculation :      7.75 MB/proc.
 Minimum memory needed :       7.75 MB/proc.

-----------------------------------------------------------------


*****************************************************************

  Start self-consistent iteration  0  out of  0
 
 Reading polarizability eigenvalues/eigenvectors  from pol_diag.dat 
 
  File created on 2009 Mar 10 13:15:59  -420 UTC
  Representation  1  out of  1
  Lowest energy eigenvalues in polarizability (eV): 
        3.466411
        3.718377
        3.795187
  Representation  1  out of  1
  Lowest energy eigenvalues in polarizability (eV): 
        3.405038
        3.503494
        4.102912
  Representation  1  out of  1
  Lowest energy eigenvalues in polarizability (eV): 
        2.527404
        3.711233
        3.760190
  Representation  1  out of  1
  Lowest energy eigenvalues in polarizability (eV): 
        3.830817
        4.069130
        4.809632
  Representation  1  out of  1
  Lowest energy eigenvalues in polarizability (eV): 
        2.915691
        3.371234
        4.306958
  Representation  1  out of  1
  Lowest energy eigenvalues in polarizability (eV): 
        4.162116
        4.404287
        4.568796
  Representation  1  out of  1
  Lowest energy eigenvalues in polarizability (eV): 
        3.029350
        3.241074
        3.402601
  Representation  1  out of  1
  Lowest energy eigenvalues in polarizability (eV): 
        3.106845
        3.809390
        4.530833
 ELAPSED TIME =        1.85 s.  Calling readmatrix kernel_p

 readmatrix: skipping reading of matrix elements 

 ELAPSED TIME =        1.85 s.  Calling readmatrix kernel_p

 readmatrix: skipping reading of matrix elements 

 ELAPSED TIME =        1.85 s.  Calling readmatrix kernel_p

 readmatrix: skipping reading of matrix elements 

 ELAPSED TIME =        1.85 s.  Calling readmatrix kernel_p

 readmatrix: skipping reading of matrix elements 

 ELAPSED TIME =        1.85 s.  Calling readmatrix kernel_p

 readmatrix: skipping reading of matrix elements 

 ELAPSED TIME =        1.85 s.  Calling readmatrix kernel_p

 readmatrix: skipping reading of matrix elements 

 ELAPSED TIME =        1.85 s.  Calling readmatrix kernel_p

 readmatrix: skipping reading of matrix elements 

 ELAPSED TIME =        1.85 s.  Calling readmatrix kernel_p

 readmatrix: skipping reading of matrix elements 


-----------------------------------------------------------------

 Checking oscillator strength sum rule
 Ratio between numerical and exact values :
                            Field polarization
                           x  ----  y  ----  z  ---- average
  RPA-LDA Sum Rule  =   1.3348   1.3378   0.8438      1.1721
     ALDA Sum Rule  =   4.4634   4.5552   1.4772      3.4986

-----------------------------------------------------------------

 Static polarizability (a.u.) 
                                 Field polarization 
                                x  ----  y  ----  z  ---- average
 RPA-LDA Polarizability =   308.85   328.69    80.74      239.427
    ALDA Polarizability =    85.65    87.60    44.88       72.708

  Average ALDA sum rule =  3.49860777149015023
  Average static RPA-LDA polarizability =  239.426692486421814
-----------------------------------------------------------------

  Lowest energy eigenvalues in polarizability, all representations:
 Order      Energy (eV)  Representation
    1        3.466411         1
    2        3.718377         1
    3        3.795187         1
    4        3.997972         1
    5        4.050834         1
    6        4.846288         1
    7        4.914622         1
    8        5.037997         1
    9        5.183647         1
   10        5.221303         1

-----------------------------------------------------------------
 Dielectric constant (RPA, no local fields) =  23.2859080736021298
-----------------------------------------------------------------


=================================================================
 WARNING !!!! f_lda = zero 
=================================================================

 ELAPSED TIME =        1.85 s.  Memory allocation done. Start calculating vvc,fvc.
 ELAPSED TIME =        1.90 s.  vvc/fvc calculation
        51 out of        256 representation  1 spin  1
 ELAPSED TIME =        1.93 s.  vvc/fvc calculation
       102 out of        256 representation  1 spin  1
 ELAPSED TIME =        1.98 s.  vvc/fvc calculation
       153 out of        256 representation  1 spin  1
 ELAPSED TIME =        2.02 s.  vvc/fvc calculation
       204 out of        256 representation  1 spin  1
 ELAPSED TIME =        2.06 s.  vvc/fvc calculation
       255 out of        256 representation  1 spin  1
 ELAPSED TIME =        2.06 s. FFT finalized
 ELAPSED TIME =        2.06 s. Finished calculation of vvc/fvc.
  Distributing grid points among PEs. 
 4093  grid points per PE. 
 Seek representation   1 in pol_diag.dat.   1  1     256
 ELAPSED TIME =        2.55 s.  vr/fr calculation
       818 out of       4093 representation  1 processor    0
 ELAPSED TIME =        2.81 s.  vr/fr calculation
      1636 out of       4093 representation  1 processor    0
 ELAPSED TIME =        3.07 s.  vr/fr calculation
      2454 out of       4093 representation  1 processor    0
 ELAPSED TIME =        3.33 s.  vr/fr calculation
      3272 out of       4093 representation  1 processor    0
 ELAPSED TIME =        3.59 s.  vr/fr calculation
      4090 out of       4093 representation  1 processor    0

 Checkpoint control =     0

 ELAPSED TIME =        3.64 s.  Calling exchange
 ELAPSED TIME =        3.93 s. FFT finalized
 ELAPSED TIME =        4.21 s. FFT finalized
 ELAPSED TIME =        4.49 s. FFT finalized
 ELAPSED TIME =        4.77 s. FFT finalized
 ELAPSED TIME =        5.05 s. FFT finalized
 ELAPSED TIME =        5.34 s. FFT finalized
 ELAPSED TIME =        5.62 s. FFT finalized
 ELAPSED TIME =        5.90 s. FFT finalized

 Checkpoint control =     9


-----------------------------------------------------------------
 Working now with representation   1 out of   1

 q-vector #    1 (       0.00000000      0.00000000      0.00000000 )

 Seek representation   1 in pol_diag.dat.   1  1     256
 ELAPSED TIME =        5.91 s.  Calling readmatrix kernel_c

 Calculating kernel matrix elements in blocks of        50000 (buffer size) 

  kernel K_x (Hartree/Exchange kernel)
 Using  263  data blocks to store matrix elements.
 ELAPSED TIME =        5.91 s. Starting calculation of kernel
 ELAPSED TIME =        6.63 s.  Kernel matrix calculation
     49536 matrix elements calculated by PE  0 representation  1 spin  1 1
 ELAPSED TIME =        7.34 s.  Kernel matrix calculation
     99072 matrix elements calculated by PE  0 representation  1 spin  1 1
 ELAPSED TIME =        8.06 s.  Kernel matrix calculation
    148608 matrix elements calculated by PE  0 representation  1 spin  1 1
 ELAPSED TIME =        8.77 s.  Kernel matrix calculation
    198144 matrix elements calculated by PE  0 representation  1 spin  1 1
 ELAPSED TIME =        9.49 s.  Kernel matrix calculation
    247680 matrix elements calculated by PE  0 representation  1 spin  1 1
Kernel done!     294912 matrix elements calculated by PE  0 representation  1
 Buffer sizes:  7
 49536 49536 49536 49536 49536 47232 0
 
 50000 50000 50000 50000 50000 50000 50000
 
 ELAPSED TIME =       10.16 s. FFT finalized
  Reconstructing kernel in blocks of  50000  matrix elements
 ELAPSED TIME =       10.21 s.  Calling potential pot_c
 ELAPSED TIME =       10.30 s.  Calling correlation
 CORRELATION , xsum =         1.0000000000 spin    1   1
 CORRELATION , xsum =         1.0000000000 spin    1   2
 CORRELATION , xsum =         1.0000000000 spin    1   3
 CORRELATION , xsum =         1.0000000000 spin    1   4
 CORRELATION , xsum =         1.0000000000 spin    1   5
 CORRELATION , xsum =         1.0000000000 spin    1   6
 CORRELATION , xsum =         1.0000000000 spin    1   7
 CORRELATION , xsum =         1.0000000000 spin    1   8

 Checkpoint control =    10


 Checkpoint control =    10


-----------------------------------------------------------------
 Working now with representation   1 out of   1

 q-vector #    2 (       0.00000000      0.00000000      0.50000000 )

 Seek representation   1 in pol_diag.dat.   1  2     256
 ELAPSED TIME =       11.51 s.  Calling readmatrix kernel_c

 Calculating kernel matrix elements in blocks of        50000 (buffer size) 

  kernel K_x (Hartree/Exchange kernel)
 Using  263  data blocks to store matrix elements.
 ELAPSED TIME =       11.52 s. Starting calculation of kernel
 ELAPSED TIME =       20.40 s.  Kernel matrix calculation
     49536 matrix elements calculated by PE  0 representation  1 spin  1 1
 ELAPSED TIME =       29.32 s.  Kernel matrix calculation
     99072 matrix elements calculated by PE  0 representation  1 spin  1 1
 ELAPSED TIME =       38.18 s.  Kernel matrix calculation
    148608 matrix elements calculated by PE  0 representation  1 spin  1 1
 ELAPSED TIME =       47.06 s.  Kernel matrix calculation
    198144 matrix elements calculated by PE  0 representation  1 spin  1 1
 ELAPSED TIME =       55.93 s.  Kernel matrix calculation
    247680 matrix elements calculated by PE  0 representation  1 spin  1 1
Kernel done!     294912 matrix elements calculated by PE  0 representation  1
 Buffer sizes:  7
 49536 49536 49536 49536 49536 47232 0
 
 50000 50000 50000 50000 50000 50000 50000
 
 ELAPSED TIME =       64.41 s. FFT finalized
  Reconstructing kernel in blocks of  50000  matrix elements
 ELAPSED TIME =       64.45 s.  Calling potential pot_c
 ELAPSED TIME =       64.54 s.  Calling correlation
 CORRELATION , xsum =         1.0000000000 spin    1   1
 CORRELATION , xsum =         1.0000000000 spin    1   2
 CORRELATION , xsum =         1.0000000000 spin    1   3
 CORRELATION , xsum =         1.0000000000 spin    1   4
 CORRELATION , xsum =         1.0000000000 spin    1   5
 CORRELATION , xsum =         1.0000000000 spin    1   6
 CORRELATION , xsum =         1.0000000000 spin    1   7
 CORRELATION , xsum =         1.0000000000 spin    1   8

 Checkpoint control =    11


 Checkpoint control =    11


-----------------------------------------------------------------
 Working now with representation   1 out of   1

 q-vector #    3 (       0.00000000      0.50000000      0.00000000 )

 Seek representation   1 in pol_diag.dat.   1  3     256
 ELAPSED TIME =       65.76 s.  Calling readmatrix kernel_c

 Calculating kernel matrix elements in blocks of        50000 (buffer size) 

  kernel K_x (Hartree/Exchange kernel)
 Using  263  data blocks to store matrix elements.
 ELAPSED TIME =       65.76 s. Starting calculation of kernel
 ELAPSED TIME =       74.71 s.  Kernel matrix calculation
     49536 matrix elements calculated by PE  0 representation  1 spin  1 1
 ELAPSED TIME =       83.65 s.  Kernel matrix calculation
     99072 matrix elements calculated by PE  0 representation  1 spin  1 1
 ELAPSED TIME =       92.59 s.  Kernel matrix calculation
    148608 matrix elements calculated by PE  0 representation  1 spin  1 1
 ELAPSED TIME =      101.54 s.  Kernel matrix calculation
    198144 matrix elements calculated by PE  0 representation  1 spin  1 1
 ELAPSED TIME =      110.49 s.  Kernel matrix calculation
    247680 matrix elements calculated by PE  0 representation  1 spin  1 1
Kernel done!     294912 matrix elements calculated by PE  0 representation  1
 Buffer sizes:  7
 49536 49536 49536 49536 49536 47232 0
 
 50000 50000 50000 50000 50000 50000 50000
 
 ELAPSED TIME =      119.02 s. FFT finalized
  Reconstructing kernel in blocks of  50000  matrix elements
 ELAPSED TIME =      119.06 s.  Calling potential pot_c
 ELAPSED TIME =      119.15 s.  Calling correlation
 CORRELATION , xsum =         1.0000000000 spin    1   1
 CORRELATION , xsum =         1.0000000000 spin    1   2
 CORRELATION , xsum =         1.0000000000 spin    1   3
 CORRELATION , xsum =         1.0000000000 spin    1   4
 CORRELATION , xsum =         1.0000000000 spin    1   5
 CORRELATION , xsum =         1.0000000000 spin    1   6
 CORRELATION , xsum =         1.0000000000 spin    1   7
 CORRELATION , xsum =         1.0000000000 spin    1   8

 Checkpoint control =    12


 Checkpoint control =    12


-----------------------------------------------------------------
 Working now with representation   1 out of   1

 q-vector #    4 (       0.00000000      0.50000000      0.50000000 )

 Seek representation   1 in pol_diag.dat.   1  4     256
 ELAPSED TIME =      120.37 s.  Calling readmatrix kernel_c

 Calculating kernel matrix elements in blocks of        50000 (buffer size) 

  kernel K_x (Hartree/Exchange kernel)
 Using  263  data blocks to store matrix elements.
 ELAPSED TIME =      120.37 s. Starting calculation of kernel
 ELAPSED TIME =      133.44 s.  Kernel matrix calculation
     49536 matrix elements calculated by PE  0 representation  1 spin  1 1
 ELAPSED TIME =      146.49 s.  Kernel matrix calculation
     99072 matrix elements calculated by PE  0 representation  1 spin  1 1
 ELAPSED TIME =      159.56 s.  Kernel matrix calculation
    148608 matrix elements calculated by PE  0 representation  1 spin  1 1
 ELAPSED TIME =      172.61 s.  Kernel matrix calculation
    198144 matrix elements calculated by PE  0 representation  1 spin  1 1
 ELAPSED TIME =      185.67 s.  Kernel matrix calculation
    247680 matrix elements calculated by PE  0 representation  1 spin  1 1
Kernel done!     294912 matrix elements calculated by PE  0 representation  1
 Buffer sizes:  7
 49536 49536 49536 49536 49536 47232 0
 
 50000 50000 50000 50000 50000 50000 50000
 
 ELAPSED TIME =      198.12 s. FFT finalized
  Reconstructing kernel in blocks of  50000  matrix elements
 ELAPSED TIME =      198.17 s.  Calling potential pot_c
 ELAPSED TIME =      198.26 s.  Calling correlation
 CORRELATION , xsum =         1.0000000000 spin    1   1
 CORRELATION , xsum =         1.0000000000 spin    1   2
 CORRELATION , xsum =         1.0000000000 spin    1   3
 CORRELATION , xsum =         1.0000000000 spin    1   4
 CORRELATION , xsum =         1.0000000000 spin    1   5
 CORRELATION , xsum =         1.0000000000 spin    1   6
 CORRELATION , xsum =         1.0000000000 spin    1   7
 CORRELATION , xsum =         1.0000000000 spin    1   8

 Checkpoint control =    13


 Checkpoint control =    13


-----------------------------------------------------------------
 Working now with representation   1 out of   1

 q-vector #    5 (       0.50000000      0.00000000      0.00000000 )

 Seek representation   1 in pol_diag.dat.   1  5     256
 ELAPSED TIME =      199.52 s.  Calling readmatrix kernel_c

 Calculating kernel matrix elements in blocks of        50000 (buffer size) 

  kernel K_x (Hartree/Exchange kernel)
 Using  263  data blocks to store matrix elements.
 ELAPSED TIME =      199.52 s. Starting calculation of kernel
 ELAPSED TIME =      208.47 s.  Kernel matrix calculation
     49536 matrix elements calculated by PE  0 representation  1 spin  1 1
 ELAPSED TIME =      217.40 s.  Kernel matrix calculation
     99072 matrix elements calculated by PE  0 representation  1 spin  1 1
 ELAPSED TIME =      226.36 s.  Kernel matrix calculation
    148608 matrix elements calculated by PE  0 representation  1 spin  1 1
 ELAPSED TIME =      235.29 s.  Kernel matrix calculation
    198144 matrix elements calculated by PE  0 representation  1 spin  1 1
 ELAPSED TIME =      244.25 s.  Kernel matrix calculation
    247680 matrix elements calculated by PE  0 representation  1 spin  1 1
Kernel done!     294912 matrix elements calculated by PE  0 representation  1
 Buffer sizes:  7
 49536 49536 49536 49536 49536 47232 0
 
 50000 50000 50000 50000 50000 50000 50000
 
 ELAPSED TIME =      252.77 s. FFT finalized
  Reconstructing kernel in blocks of  50000  matrix elements
 ELAPSED TIME =      252.82 s.  Calling potential pot_c
 ELAPSED TIME =      252.91 s.  Calling correlation
 CORRELATION , xsum =         1.0000000000 spin    1   1
 CORRELATION , xsum =         1.0000000000 spin    1   2
 CORRELATION , xsum =         1.0000000000 spin    1   3
 CORRELATION , xsum =         1.0000000000 spin    1   4
 CORRELATION , xsum =         1.0000000000 spin    1   5
 CORRELATION , xsum =         1.0000000000 spin    1   6
 CORRELATION , xsum =         1.0000000000 spin    1   7
 CORRELATION , xsum =         1.0000000000 spin    1   8

 Checkpoint control =    14


 Checkpoint control =    14


-----------------------------------------------------------------
 Working now with representation   1 out of   1

 q-vector #    6 (       0.50000000      0.00000000      0.50000000 )

 Seek representation   1 in pol_diag.dat.   1  6     256
 ELAPSED TIME =      254.21 s.  Calling readmatrix kernel_c

 Calculating kernel matrix elements in blocks of        50000 (buffer size) 

  kernel K_x (Hartree/Exchange kernel)
 Using  263  data blocks to store matrix elements.
 ELAPSED TIME =      254.21 s. Starting calculation of kernel
 ELAPSED TIME =      267.26 s.  Kernel matrix calculation
     49536 matrix elements calculated by PE  0 representation  1 spin  1 1
 ELAPSED TIME =      280.32 s.  Kernel matrix calculation
     99072 matrix elements calculated by PE  0 representation  1 spin  1 1
 ELAPSED TIME =      293.39 s.  Kernel matrix calculation
    148608 matrix elements calculated by PE  0 representation  1 spin  1 1
 ELAPSED TIME =      306.46 s.  Kernel matrix calculation
    198144 matrix elements calculated by PE  0 representation  1 spin  1 1
 ELAPSED TIME =      319.52 s.  Kernel matrix calculation
    247680 matrix elements calculated by PE  0 representation  1 spin  1 1
Kernel done!     294912 matrix elements calculated by PE  0 representation  1
 Buffer sizes:  7
 49536 49536 49536 49536 49536 47232 0
 
 50000 50000 50000 50000 50000 50000 50000
 
 ELAPSED TIME =      331.98 s. FFT finalized
  Reconstructing kernel in blocks of  50000  matrix elements
 ELAPSED TIME =      332.03 s.  Calling potential pot_c
 ELAPSED TIME =      332.12 s.  Calling correlation
 CORRELATION , xsum =         1.0000000000 spin    1   1
 CORRELATION , xsum =         1.0000000000 spin    1   2
 CORRELATION , xsum =         1.0000000000 spin    1   3
 CORRELATION , xsum =         1.0000000000 spin    1   4
 CORRELATION , xsum =         1.0000000000 spin    1   5
 CORRELATION , xsum =         1.0000000000 spin    1   6
 CORRELATION , xsum =         1.0000000000 spin    1   7
 CORRELATION , xsum =         1.0000000000 spin    1   8

 Checkpoint control =    15


 Checkpoint control =    15


-----------------------------------------------------------------
 Working now with representation   1 out of   1

 q-vector #    7 (       0.50000000      0.50000000      0.00000000 )

 Seek representation   1 in pol_diag.dat.   1  7     256
 ELAPSED TIME =      333.35 s.  Calling readmatrix kernel_c

 Calculating kernel matrix elements in blocks of        50000 (buffer size) 

  kernel K_x (Hartree/Exchange kernel)
 Using  263  data blocks to store matrix elements.
 ELAPSED TIME =      333.35 s. Starting calculation of kernel
 ELAPSED TIME =      346.41 s.  Kernel matrix calculation
     49536 matrix elements calculated by PE  0 representation  1 spin  1 1
 ELAPSED TIME =      359.47 s.  Kernel matrix calculation
     99072 matrix elements calculated by PE  0 representation  1 spin  1 1
 ELAPSED TIME =      372.53 s.  Kernel matrix calculation
    148608 matrix elements calculated by PE  0 representation  1 spin  1 1
 ELAPSED TIME =      385.59 s.  Kernel matrix calculation
    198144 matrix elements calculated by PE  0 representation  1 spin  1 1
 ELAPSED TIME =      398.64 s.  Kernel matrix calculation
    247680 matrix elements calculated by PE  0 representation  1 spin  1 1
Kernel done!     294912 matrix elements calculated by PE  0 representation  1
 Buffer sizes:  7
 49536 49536 49536 49536 49536 47232 0
 
 50000 50000 50000 50000 50000 50000 50000
 
 ELAPSED TIME =      411.10 s. FFT finalized
  Reconstructing kernel in blocks of  50000  matrix elements
 ELAPSED TIME =      411.15 s.  Calling potential pot_c
 ELAPSED TIME =      411.24 s.  Calling correlation
 CORRELATION , xsum =         1.0000000000 spin    1   1
 CORRELATION , xsum =         1.0000000000 spin    1   2
 CORRELATION , xsum =         1.0000000000 spin    1   3
 CORRELATION , xsum =         1.0000000000 spin    1   4
 CORRELATION , xsum =         1.0000000000 spin    1   5
 CORRELATION , xsum =         1.0000000000 spin    1   6
 CORRELATION , xsum =         1.0000000000 spin    1   7
 CORRELATION , xsum =         1.0000000000 spin    1   8

 Checkpoint control =    16


 Checkpoint control =    16


-----------------------------------------------------------------
 Working now with representation   1 out of   1

 q-vector #    8 (       0.50000000      0.50000000      0.50000000 )

 Seek representation   1 in pol_diag.dat.   1  8     256
 ELAPSED TIME =      412.46 s.  Calling readmatrix kernel_c

 Calculating kernel matrix elements in blocks of        50000 (buffer size) 

  kernel K_x (Hartree/Exchange kernel)
 Using  263  data blocks to store matrix elements.
 ELAPSED TIME =      412.46 s. Starting calculation of kernel
 ELAPSED TIME =      427.56 s.  Kernel matrix calculation
     49536 matrix elements calculated by PE  0 representation  1 spin  1 1
 ELAPSED TIME =      442.70 s.  Kernel matrix calculation
     99072 matrix elements calculated by PE  0 representation  1 spin  1 1
 ELAPSED TIME =      457.81 s.  Kernel matrix calculation
    148608 matrix elements calculated by PE  0 representation  1 spin  1 1
 ELAPSED TIME =      472.93 s.  Kernel matrix calculation
    198144 matrix elements calculated by PE  0 representation  1 spin  1 1
 ELAPSED TIME =      488.06 s.  Kernel matrix calculation
    247680 matrix elements calculated by PE  0 representation  1 spin  1 1
Kernel done!     294912 matrix elements calculated by PE  0 representation  1
 Buffer sizes:  7
 49536 49536 49536 49536 49536 47232 0
 
 50000 50000 50000 50000 50000 50000 50000
 
 ELAPSED TIME =      502.47 s. FFT finalized
  Reconstructing kernel in blocks of  50000  matrix elements
 ELAPSED TIME =      502.51 s.  Calling potential pot_c
 ELAPSED TIME =      502.60 s.  Calling correlation
 CORRELATION , xsum =         1.0000000000 spin    1   1
 CORRELATION , xsum =         1.0000000000 spin    1   2
 CORRELATION , xsum =         1.0000000000 spin    1   3
 CORRELATION , xsum =         1.0000000000 spin    1   4
 CORRELATION , xsum =         1.0000000000 spin    1   5
 CORRELATION , xsum =         1.0000000000 spin    1   6
 CORRELATION , xsum =         1.0000000000 spin    1   7
 CORRELATION , xsum =         1.0000000000 spin    1   8

 Checkpoint control =    17


 Checkpoint control =    17


 Found wpol0.dat file. Calculating static correction 


 Reading static correction from file wpol0.dat.
      r          rho        Wpol0_v          Wpol0_f
  -8  -8  -8      0.0872     -0.3322      0.0000
  -8  -8   0      0.0866     -0.3323      0.0000
  -8   0  -8      0.0858     -0.3308      0.0000
   0  -8  -8      0.0843     -0.3346      0.0000
  -7  -8  -8      0.0836     -0.3378      0.0000
   7  -8  -8      0.0836     -0.3377      0.0000
  -8  -7  -8      0.0833     -0.3383      0.0000
  -8   7  -8      0.0833     -0.3382      0.0000
   7  -8   1      0.0829     -0.3377      0.0000
  -7  -8  -1      0.0829     -0.3376      0.0000
 

 Checkpoint control =    18

 ELAPSED TIME =      503.90 s.  All matrix elements calculated. Start printout
 ELAPSED TIME =      503.92 s.  Calling rotate.
 
 Spin  1
 Maximum difference between input and output densities : 
    0.6117823801E-02 a.u.^-3
 Standard deviation of the difference between densities : 
    0.1525133858E-02 a.u.^-3
 Old integrated charge =      8.000000000    
 New integrated charge =      8.000000000    

 ELAPSED TIME =      503.94 s. FFT finalized
 ELAPSED TIME =      504.03 s. FFT finalized
 ELAPSED TIME =      504.12 s. FFT finalized
 ELAPSED TIME =      504.21 s. FFT finalized
 ELAPSED TIME =      504.31 s. FFT finalized
 ELAPSED TIME =      504.40 s. FFT finalized
 ELAPSED TIME =      504.50 s. FFT finalized
 ELAPSED TIME =      504.59 s. FFT finalized
 ELAPSED TIME =      504.69 s. FFT finalized
 
 WARNING! Local pseudopotential energy is wrong in periodic systems
 WARNING! Ion-ion pseudopotential energy is wrong in periodic systems
 WARNING! Total pseudopotential energy is wrong in periodic systems
 
                  Eigenvalue Energy =         5.7050855106 [Ry]
                     Kinetic Energy =        -5.5165929190 [Ry]
       Local Pseudopotential Energy =         0.0000000000 [Ry]
   Non-local Pseudopotential Energy =         0.4096902910 [Ry]
                     Ion-ion Energy =         0.0000000000 [Ry]
                       Total Energy =         0.2990914413 [Ry]
 Total energy excludes Exc - Int_{Vxc*rho}/2 term.
 
 ELAPSED TIME =      504.75 s. FFT finalized
 ELAPSED TIME =      504.81 s. FFT finalized
 ELAPSED TIME =      504.87 s. FFT finalized
 ELAPSED TIME =      504.94 s. FFT finalized
 ELAPSED TIME =      505.00 s. FFT finalized
 ELAPSED TIME =      505.06 s. FFT finalized
 ELAPSED TIME =      505.13 s. FFT finalized
 ELAPSED TIME =      505.19 s. FFT finalized

 Iteration     0. Maximum potential (eV) =    2.49724


-----------------------------------------------------------------
                               CPU [s]     WALL [s]           #

 SETUP_S:                         0.530        0.521          1
 KERNEL:                        487.300      490.268         16
 DIAG_POL:                        0.000        0.000          0
 WPOL_0:                          1.790        2.374          1
 EXCHANGE:                        2.260        2.283          8
 POTENTIAL:                       0.720        0.727          8
 CORRELATION:                     9.850        9.859          8
 VERTEX:                          0.000        0.000          0
 
 ROTATE:                          0.050        0.046          1
 POISSON_FFT:                   292.470      303.211    2740866
 EIGENSOLVER:                     0.000        0.000          0
 INTEGRATION:                   485.140      488.400       2048

                TOTAL           505.280      509.644

 Finished 2009 Mar 10 13:26:29  -420 UTC
-----------------------------------------------------------------
