 
 =================================================================
 
  PARSEC 1.1 - Real-space DFT Program
 
  serial run, no MPI interface
  starting run on 23-JAN-2009 12:44:39 -0700 UTC
 
 =================================================================
 
 Initial Run - starting from atomic potentials
 
 Grid data:
 ----------
 Confined system with zero boundary condition!
 Boundary sphere size is   9.448634 bohrs
 Grid spacing is  0.661404 bohrs
 
 Grid points are shifted from origin! 
 shift vector =   0.5000  0.5000  0.5000   [units of grid spacing]
 Finite-difference expansion of order 12
 
 Eigenvalue data: 
 ---------------- 
 Number of states:  80
Net cluster charge:    0.000
 
 Fermi temperature =   80.0 [K]
 
 Self-consistency data: 
 ----------------------
 Max number of iterations is  50
 Using DIAGLA (block preconditioned Lanczos eigen-problem solver)
 
 Self-consistency convergence criterion is  0.00020 Ry
 Diagonalization tolerance is 0.10000E-03
 Tolerance in initial diagonalization  100.000
 Buffer size in subspace is      1
 
 Mixer data:
 -----------
 Anderson mixer
 Initial Jacobian:  0.300  Mixing memory is  4
 
 Atom data:
 ----------

Total # of atom types is     2

 Atom coordinates input in angstroms
 
 There are   1 Si atoms
 and their initial coordinates are:
 
    x [bohr]          y [bohr]          z [bohr]     movable?
    0.000000000       0.000000000       0.000000000      1
 There are   4 H  atoms
 and their initial coordinates are:
 
    x [bohr]          y [bohr]          z [bohr]     movable?
    1.627432787       1.627432787       1.627432787      1
   -1.627432787      -1.627432787       1.627432787      1
   -1.627432787       1.627432787      -1.627432787      1
    1.627432787      -1.627432787      -1.627432787      1
 
 Total number of atoms =    5
 
 Correlation data:
 -----------------
 Exchange-Correlation functional is ca
 LDA, Ceperley-Alder, Perdew-Zunger parametrization
 
 Other input data:
 -----------------
 Writing all calculated wave functions to wfn.dat file
 
No spin effects!

 
 Using new (r*V_ps) interpolation of pseudopot. !
 
 No eigenvalue output File!
 OutEvFlag =  0
 
 No minimization!
 
 No molecular dynamics!
 
 No polarizability!
 
 
 
 Pseudopotential messages
 ------------------------
 
 Pseudopotential file for atom type  1 is Si_POTRE.DAT

Si  ca  nrl  nc  
  atom 5.69 14-Dec-04   Improved Troullier - Martins potential
 3s(  1.50)  rc= 2.693p(  2.50)  rc= 3.78

 ion charge =  4.000    
 logarithmic parameters of pseudopot. radial grid
 r(i) = a*[Exp(b(i-1)) - 1)]
 Si:   a = 0.177054E-03  b = 0.100000E-01    nr =     1343

NOTICE: No Core-Correction !

 Occupancy of orbitals : 
   1.500   2.500
 # of pseudopot= 2, Local component is l = 1, Core radius=  3.82
 
 Pseudopotential file for atom type  2 is H_POTRE.DAT

H   ca  nrl  nc  
  atom 5.69 14-Dec-04   Improved Troullier - Martins potential
 1s(  1.00)  rc= 1.99

 ion charge =  1.000    
 logarithmic parameters of pseudopot. radial grid
 r(i) = a*[Exp(b(i-1)) - 1)]
 H :   a = 0.247875E-02  b = 0.100000E-01    nr =     1079

NOTICE: No Core-Correction !

 Occupancy of orbitals : 
   1.000
 # of pseudopot= 1, Local component is l = 0, Core radius=  2.01
 
 Using order 18 for calculating dV/dr in pseudo
 
 Normalization check and Kleinman-Bylander Integral
 
                                 s                 p                 d
  Si   Normalization        1.00001667        1.00001667
  Si   K-B Integral         0.23760083       -3.29396717
 
  H    Normalization        1.00001667
  H    K-B Integral        -1.76269562
 

 Symmetry Properties:
 --------------------

 The space group of the crystal is symmorphic
 (this usually means that symmetry operations do not
 involve rotations and translations simultaneously)

 Operation number: 
       1  2  3  4  5  6  7  8  9 10 11 12
      37 38 39 40 41 42 43 44 45 46 47 48


    Rotation matrices (r-lattice) and fractional translations (r-lattice)

    1     1  0  0     0  1  0     0  0  1      0.00000  0.00000  0.00000   E  
    2     1  0  0     0 -1  0     0  0 -1      0.00000  0.00000  0.00000   C2 
    3    -1  0  0     0  1  0     0  0 -1      0.00000  0.00000  0.00000   C2 
    4    -1  0  0     0 -1  0     0  0  1      0.00000  0.00000  0.00000   C2 
    5     0  0  1     1  0  0     0  1  0      0.00000  0.00000  0.00000   C3 
    6     0  0 -1     1  0  0     0 -1  0      0.00000  0.00000  0.00000   C3 
    7     0  0 -1    -1  0  0     0  1  0      0.00000  0.00000  0.00000   C3 
    8     0  0  1    -1  0  0     0 -1  0      0.00000  0.00000  0.00000   C3 
    9     0  1  0     0  0  1     1  0  0      0.00000  0.00000  0.00000   C3 
   10     0 -1  0     0  0 -1     1  0  0      0.00000  0.00000  0.00000   C3 
   11     0  1  0     0  0 -1    -1  0  0      0.00000  0.00000  0.00000   C3 
   12     0 -1  0     0  0  1    -1  0  0      0.00000  0.00000  0.00000   C3 
   13     0  1  0     1  0  0     0  0  1      0.00000  0.00000  0.00000   IC2
   14     0 -1  0     1  0  0     0  0 -1      0.00000  0.00000  0.00000   IC4
   15     0  1  0    -1  0  0     0  0 -1      0.00000  0.00000  0.00000   IC4
   16     0 -1  0    -1  0  0     0  0  1      0.00000  0.00000  0.00000   IC2
   17     1  0  0     0  0  1     0  1  0      0.00000  0.00000  0.00000   IC2
   18     1  0  0     0  0 -1     0 -1  0      0.00000  0.00000  0.00000   IC2
   19    -1  0  0     0  0 -1     0  1  0      0.00000  0.00000  0.00000   IC4
   20    -1  0  0     0  0  1     0 -1  0      0.00000  0.00000  0.00000   IC4
   21     0  0  1     0  1  0     1  0  0      0.00000  0.00000  0.00000   IC2
   22     0  0 -1     0 -1  0     1  0  0      0.00000  0.00000  0.00000   IC4
   23     0  0 -1     0  1  0    -1  0  0      0.00000  0.00000  0.00000   IC2
   24     0  0  1     0 -1  0    -1  0  0      0.00000  0.00000  0.00000   IC4
 
  Found Abelian subgroup D_2   with  4  symmetry operations
 
  Character table :
----------------------------------------
 Representation  |     E   C2   C2   C2
     A       1   |     1    1    1    1
     B1      2   |     1    1   -1   -1
     B2      3   |     1   -1    1   -1
     B3      4   |     1   -1   -1    1
----------------------------------------
 Operation number:     1    2    3    4
 
 
 Setup messages:
 ---------------
 The Hamiltonian matrix size is 12160
  reduced size is  3040
  maximum distance between grid points and their images is
  0.8455E-15  [bohr]
 
 There are 36 laplacian-related non-diagonal elements per row
 
 Non-local pseudopotential messages:
 -----------------------------------
 Max # of nonlocal points for one atom =  840
 
 Sizes of all non-local blocks 
   840   120   120   120   120
 
 
 Memory usage:
 -------------
 estimated memory usage (no MPI)  :     5.27 MB
 
 total electrons from atomic density is     7.99875
 total electrons from atomic density is     8.00000

 Max and min values of charge density [e/bohr^3]  0.1279E+00  0.1229E-05     
 
Hartree potential time [sec]:       0.05
 
 
Setup time [sec] :       0.12
 
 -----------------------------------------------------------------
 
 Number of converged eigen-pairs per representation: 
    21    21    21    21                          total =     84
 Number of matrix-vector multiplications: 
   853   962  1005  1121                          total =   3941
 Number of converged eigen-pairs per representation: 
    26    21    21    21                          total =     89
 Number of matrix-vector multiplications: 
   170     0     0     0                          total =    170
 
Diagonalization time [sec] :       5.04
 
 Fermi level at    -0.6130 [Ry]
 
   State   Eigenvalue [Ry]      Eigenvalue [eV]    Occup.     Repr.
 
    1        -1.2186249174       -16.5803669014    1.0000        1
    2        -0.8461892661       -11.5130819168    1.0000        2
    3        -0.8461892661       -11.5130819168    1.0000        3
    4        -0.8461892661       -11.5130819168    1.0000        4
    5        -0.1134137348        -1.5430845934    0.0000        4
    6        -0.1134137348        -1.5430845933    0.0000        3
    7        -0.1134137348        -1.5430845933    0.0000        2
    8        -0.1066701306        -1.4513324633    0.0000        1
    9         0.0444434406         0.6046885637    0.0000        1
   10         0.0444434406         0.6046885638    0.0000        1
   11         0.0800835885         1.0896012880    0.0000        3
   12         0.0800835885         1.0896012880    0.0000        4
   13         0.0800835885         1.0896012880    0.0000        2
   14         0.1535909122         2.0897272335    0.0000        1
   15         0.3014863247         4.1019626364    0.0000        3
   16         0.3014863247         4.1019626364    0.0000        2
   17         0.3014863247         4.1019626365    0.0000        4
   18         0.3219574023         4.3804880244    0.0000        4
   19         0.3219574023         4.3804880245    0.0000        2
   20         0.3219574023         4.3804880245    0.0000        3
   21         0.3528469601         4.8007651703    0.0000        3
   22         0.3528469601         4.8007651703    0.0000        2
   23         0.3528469602         4.8007651705    0.0000        4
   24         0.4058914209         5.5224774940    0.0000        1
   25         0.4250742456         5.7834751711    0.0000        1
   26         0.4250742457         5.7834751725    0.0000        1
   27         0.5563341447         7.5693711063    0.0000        3
   28         0.5563341447         7.5693711064    0.0000        4
   29         0.5563341447         7.5693711066    0.0000        2
   30         0.5701401445         7.7572127778    0.0000        1
   31         0.5736334667         7.8047422207    0.0000        1
   32         0.5736334667         7.8047422216    0.0000        1
   33         0.5764130902         7.8425612222    0.0000        4
   34         0.5764130902         7.8425612222    0.0000        2
   35         0.5764130903         7.8425612234    0.0000        3
   36         0.6141604393         8.3561441052    0.0000        1
   37         0.6201156702         8.4371697854    0.0000        4
   38         0.6201156702         8.4371697856    0.0000        2
   39         0.6201156702         8.4371697859    0.0000        3
   40         0.7881167517        10.7229588999    0.0000        2
   41         0.7881167520        10.7229589041    0.0000        3
   42         0.7881167520        10.7229589049    0.0000        4
   43         0.7967301922        10.8401516484    0.0000        3
   44         0.7967301923        10.8401516498    0.0000        2
   45         0.7967301923        10.8401516501    0.0000        4
   46         0.8197893598        11.1538900710    0.0000        2
   47         0.8197893598        11.1538900710    0.0000        4
   48         0.8197893602        11.1538900772    0.0000        3
   49         0.8198148268        11.1542365703    0.0000        1
   50         0.8198148269        11.1542365722    0.0000        1
   51         0.8220229248        11.1842795107    0.0000        2
   52         0.8220229249        11.1842795114    0.0000        4
   53         0.8220229250        11.1842795131    0.0000        3
   54         0.8229908990        11.1974495739    0.0000        3
   55         0.8229908991        11.1974495750    0.0000        2
   56         0.8229908994        11.1974495785    0.0000        4
   57         0.9874967980        13.4356839337    0.0000        4
   58         0.9874967984        13.4356839393    0.0000        3
   59         0.9874967987        13.4356839431    0.0000        2
   60         1.0689658132        14.5441350612    0.0000        1
   61         1.0689658138        14.5441350691    0.0000        1
   62         1.0819381785        14.7206344687    0.0000        3
   63         1.0819381785        14.7206344697    0.0000        4
   64         1.0819381788        14.7206344728    0.0000        2
   65         1.0822240033        14.7245233445    0.0000        1
   66         1.0840418064        14.7492560092    0.0000        2
   67         1.0840418068        14.7492560144    0.0000        4
   68         1.0840418070        14.7492560174    0.0000        3
   69         1.0878627241        14.8012426514    0.0000        1
   70         1.0886146930        14.8114737905    0.0000        4
   71         1.0886146931        14.8114737917    0.0000        2
   72         1.0886146932        14.8114737923    0.0000        3
   73         1.0909694100        14.8435115989    0.0000        1
   74         1.0909694113        14.8435116158    0.0000        1
   75         1.1113017230        15.1201489822    0.0000        1
   76         1.1319849524        15.4015608651    0.0000        2
   77         1.1319849524        15.4015608658    0.0000        4
   78         1.1319849525        15.4015608666    0.0000        3
   79         1.2037419895        16.3778727603    0.0000        1
   80         1.2037419905        16.3778727743    0.0000        1

 Max and min values of charge density [e/bohr^3]  0.1912E+00  0.1577E-08     
 
Hartree potential time [sec]:       0.06
 
 
   Eigenvalue Energy             =          -7.51438543 [Ry]
   Hartree Energy                =          22.94085579 [Ry]
   Integral_{Vxc*rho}            =          -6.68590520 [Ry]
   Exc = Integral{eps_xc*rho}    =          -5.12348201 [Ry]
   Electron-Ion energy           =         -51.98270112 [Ry]
   Ion-Ion Energy                =          13.95931646 [Ry]
   (E(new)-E(old))/atom  =           -71.70983890 [eV]
 
   Total Energy =           -12.39335626 [Ry]
   Energy/atom  =           -33.72430531 [eV]
 
 
  0- 1    SRE of pot. & charge weighted pot =   2.6360419515    0.3366373722

 Number of converged eigen-pairs per representation: 
    23    20    20    20                          total =     83
 Number of matrix-vector multiplications: 
   699   629   679   746                          total =   2753
 
Diagonalization time [sec] :       3.26
 
 Fermi level at    -0.5319 [Ry]
 
   State   Eigenvalue [Ry]      Eigenvalue [eV]    Occup.     Repr.
 
    1        -1.1199320060       -15.2375708871    1.0000        1
    2        -0.7530118987       -10.2453292917    1.0000        4
    3        -0.7530118971       -10.2453292699    1.0000        2
    4        -0.7530118911       -10.2453291882    1.0000        3
    5        -0.0566510898        -0.7707833977    0.0000        1
    6        -0.0538119172        -0.7321541824    0.0000        3
    7        -0.0538119171        -0.7321541823    0.0000        2
    8        -0.0538119151        -0.7321541538    0.0000        4
    9         0.0855786932         1.1643665846    0.0000        1
   10         0.0855786937         1.1643665903    0.0000        1
   11         0.1136360412         1.5461092499    0.0000        3
   12         0.1136360414         1.5461092524    0.0000        4
   13         0.1136360449         1.5461092994    0.0000        2
   14         0.2005660971         2.7288622044    0.0000        1
   15         0.3328404076         4.5285600179    0.0000        2
   16         0.3328404089         4.5285600359    0.0000        3
   17         0.3328404112         4.5285600668    0.0000        4
   18         0.3480897380         4.7360393568    0.0000        4
   19         0.3480897394         4.7360393769    0.0000        3
   20         0.3480897433         4.7360394294    0.0000        2
   21         0.3810601737         5.1846285112    0.0000        4
   22         0.3810601747         5.1846285254    0.0000        3
   23         0.3810601761         5.1846285440    0.0000        2
   24         0.4391421257         5.9748799342    0.0000        1
   25         0.4639173856         6.3119671648    0.0000        1
   26         0.4639173947         6.3119672889    0.0000        1
   27         0.5801355985         7.8932089261    0.0000        4
   28         0.5801356013         7.8932089636    0.0000        2
   29         0.5801356033         7.8932089910    0.0000        3
   30         0.5930230562         8.0685530981    0.0000        1
   31         0.5938748934         8.0801430245    0.0000        1
   32         0.5938748945         8.0801430391    0.0000        1
   33         0.5968763336         8.1209800198    0.0000        2
   34         0.5968763373         8.1209800701    0.0000        3
   35         0.5968763426         8.1209801423    0.0000        4
   36         0.6478485759         8.8144981541    0.0000        1
   37         0.6588087643         8.9636202854    0.0000        4
   38         0.6588087672         8.9636203249    0.0000        2
   39         0.6588087754         8.9636204363    0.0000        3
   40         0.8245900464        11.2192072532    0.0000        2
   41         0.8245900470        11.2192072619    0.0000        3
   42         0.8245900499        11.2192073006    0.0000        4
   43         0.8259669875        11.2379416384    0.0000        4
   44         0.8259669905        11.2379416787    0.0000        2
   45         0.8259669920        11.2379416997    0.0000        3
   46         0.8385645604        11.4093416959    0.0000        1
   47         0.8385645633        11.4093417350    0.0000        1
   48         0.8399543521        11.4282509231    0.0000        4
   49         0.8399543566        11.4282509845    0.0000        2
   50         0.8399543571        11.4282509913    0.0000        3
   51         0.8411127255        11.4440115204    0.0000        4
   52         0.8411127315        11.4440116017    0.0000        3
   53         0.8411127324        11.4440116146    0.0000        2
   54         0.8438676983        11.4814951295    0.0000        2
   55         0.8438676985        11.4814951327    0.0000        3
   56         0.8438677009        11.4814951649    0.0000        4
   57         1.0256831251        13.9552394639    0.0000        3
   58         1.0256831343        13.9552395882    0.0000        4
   59         1.0256831349        13.9552395968    0.0000        2
   60         1.0991571304        14.9549120845    0.0000        3
   61         1.0991571314        14.9549120989    0.0000        2
   62         1.0991571340        14.9549121343    0.0000        4
   63         1.0995552389        14.9603286698    0.0000        1
   64         1.1002122732        14.9692681465    0.0000        1
   65         1.1002122786        14.9692682209    0.0000        1
   66         1.1010035965        14.9800347329    0.0000        3
   67         1.1010035973        14.9800347436    0.0000        2
   68         1.1010036073        14.9800348796    0.0000        4
   69         1.1046618599        15.0298083332    0.0000        1
   70         1.1058682192        15.0462218169    0.0000        4
   71         1.1058682261        15.0462219107    0.0000        2
   72         1.1058682269        15.0462219215    0.0000        3
   73         1.1175304735        15.2048961158    0.0000        1
   74         1.1175304814        15.2048962242    0.0000        1
   75         1.1492845045        15.6369351113    0.0000        1
   76         1.1675573469        15.8855517509    0.0000        4
   77         1.1675573499        15.8855517919    0.0000        2
   78         1.1675573528        15.8855518311    0.0000        3
   79         1.2320999255        16.7637051663    0.0000        1
   80         1.2320999257        16.7637051685    0.0000        1

 Max and min values of charge density [e/bohr^3]  0.1863E+00  0.2639E-08     
 
Hartree potential time [sec]:       0.05
 
 
   Eigenvalue Energy             =          -6.75793539 [Ry]
   Hartree Energy                =          22.59726972 [Ry]
   Integral_{Vxc*rho}            =          -6.57733151 [Ry]
   Exc = Integral{eps_xc*rho}    =          -5.04076768 [Ry]
   Electron-Ion energy           =         -51.48200923 [Ry]
   Ion-Ion Energy                =          13.95931646 [Ry]
   (E(new)-E(old))/atom  =            -0.07947963 [eV]
 
   Total Energy =           -12.42256425 [Ry]
   Energy/atom  =           -33.80378495 [eV]
 
 
  0- 2    SRE of pot. & charge weighted pot =   1.5291440243    0.1907345724

 Number of converged eigen-pairs per representation: 
    23    20    20    20                          total =     83
 Number of matrix-vector multiplications: 
   679   712   708   821                          total =   2920
 
Diagonalization time [sec] :       3.47
 
 Fermi level at    -0.4249 [Ry]
 
   State   Eigenvalue [Ry]      Eigenvalue [eV]    Occup.     Repr.
 
    1        -0.9901984405       -13.4724419417    1.0000        1
    2        -0.6280759909        -8.5454763168    1.0000        4
    3        -0.6280759826        -8.5454762035    1.0000        2
    4        -0.6280759823        -8.5454762004    1.0000        3
    5         0.0046373382         0.0630946962    0.0000        1
    6         0.0214441624         0.2917649849    0.0000        2
    7         0.0214441629         0.2917649917    0.0000        3
    8         0.0214441651         0.2917650218    0.0000        4
    9         0.1381098368         1.8790948172    0.0000        1
   10         0.1381098436         1.8790949104    0.0000        1
   11         0.1588160143         2.1608189280    0.0000        4
   12         0.1588160174         2.1608189692    0.0000        3
   13         0.1588160201         2.1608190063    0.0000        2
   14         0.2650727595         3.6065269509    0.0000        1
   15         0.3751784767         5.1046033182    0.0000        4
   16         0.3751784995         5.1046036284    0.0000        3
   17         0.3751785004         5.1046036409    0.0000        2
   18         0.3832648015         5.2146242365    0.0000        3
   19         0.3832648023         5.2146242469    0.0000        2
   20         0.3832648169         5.2146244463    0.0000        4
   21         0.4217449074         5.7381768611    0.0000        3
   22         0.4217449078         5.7381768663    0.0000        2
   23         0.4217449084         5.7381768744    0.0000        4
   24         0.4864790668         6.6189368874    0.0000        1
   25         0.5174214336         7.0399325419    0.0000        1
   26         0.5174214376         7.0399325963    0.0000        1
   27         0.6117213435         8.3229582560    0.0000        2
   28         0.6117213440         8.3229582624    0.0000        3
   29         0.6117213535         8.3229583910    0.0000        4
   30         0.6218701824         8.4610413272    0.0000        1
   31         0.6218701846         8.4610413580    0.0000        1
   32         0.6233921319         8.4817486686    0.0000        1
   33         0.6252153586         8.5065551264    0.0000        4
   34         0.6252153772         8.5065553785    0.0000        2
   35         0.6252153794         8.5065554090    0.0000        3
   36         0.6971872426         9.4857901859    0.0000        1
   37         0.7122635725         9.6909157145    0.0000        2
   38         0.7122635739         9.6909157339    0.0000        3
   39         0.7122635987         9.6909160713    0.0000        4
   40         0.8574667508        11.6665211179    0.0000        3
   41         0.8574667509        11.6665211195    0.0000        2
   42         0.8574667691        11.6665213664    0.0000        4
   43         0.8648316150        11.7667259868    0.0000        1
   44         0.8648316158        11.7667259977    0.0000        1
   45         0.8658039637        11.7799555692    0.0000        3
   46         0.8658039639        11.7799555715    0.0000        2
   47         0.8658040004        11.7799560692    0.0000        4
   48         0.8663133588        11.7868862975    0.0000        3
   49         0.8663133595        11.7868863068    0.0000        2
   50         0.8663133665        11.7868864020    0.0000        4
   51         0.8744264071        11.8972708099    0.0000        2
   52         0.8744264078        11.8972708187    0.0000        3
   53         0.8744264079        11.8972708199    0.0000        4
   54         0.8849584105        12.0405671414    0.0000        4
   55         0.8849584185        12.0405672501    0.0000        3
   56         0.8849584189        12.0405672554    0.0000        2
   57         1.0779879874        14.6668889583    0.0000        4
   58         1.0779879950        14.6668890624    0.0000        3
   59         1.0779879969        14.6668890878    0.0000        2
   60         1.1234044862        15.2848167584    0.0000        2
   61         1.1234044863        15.2848167597    0.0000        3
   62         1.1234044897        15.2848168055    0.0000        4
   63         1.1239345911        15.2920292590    0.0000        1
   64         1.1248979801        15.3051369371    0.0000        4
   65         1.1248980353        15.3051376893    0.0000        2
   66         1.1248980378        15.3051377224    0.0000        3
   67         1.1273940429        15.3390978682    0.0000        1
   68         1.1273940826        15.3390984085    0.0000        1
   69         1.1282476930        15.3507124608    0.0000        1
   70         1.1302043975        15.3773349911    0.0000        3
   71         1.1302043987        15.3773350080    0.0000        2
   72         1.1302044074        15.3773351264    0.0000        4
   73         1.1698434037        15.9166553823    0.0000        1
   74         1.1698434068        15.9166554236    0.0000        1
   75         1.2003176302        16.3312816134    0.0000        1
   76         1.2162119707        16.5475368309    0.0000        2
   77         1.2162119717        16.5475368442    0.0000        3
   78         1.2162119982        16.5475372045    0.0000        4
   79         1.2710432839        17.2935607119    0.0000        1
   80         1.2710432852        17.2935607293    0.0000        1

 Max and min values of charge density [e/bohr^3]  0.1769E+00  0.5414E-08     
 
Hartree potential time [sec]:       0.06
 
 
   Eigenvalue Energy             =          -5.74885279 [Ry]
   Hartree Energy                =          22.12560712 [Ry]
   Integral_{Vxc*rho}            =          -6.41589169 [Ry]
   Exc = Integral{eps_xc*rho}    =          -4.91776814 [Ry]
   Electron-Ion energy           =         -50.76154303 [Ry]
   Ion-Ion Energy                =          13.95931646 [Ry]
   (E(new)-E(old))/atom  =            -0.03958539 [eV]
 
   Total Energy =           -12.43711150 [Ry]
   Energy/atom  =           -33.84337033 [eV]
 
 
  0- 3    SRE of pot. & charge weighted pot =   0.0996109592    0.0124936098

 Number of converged eigen-pairs per representation: 
    23    20    20    20                          total =     83
 Number of matrix-vector multiplications: 
   468   497   499   489                          total =   1953
 
Diagonalization time [sec] :       2.24
 
 Fermi level at    -0.4295 [Ry]
 
   State   Eigenvalue [Ry]      Eigenvalue [eV]    Occup.     Repr.
 
    1        -0.9962733481       -13.5550959193    1.0000        1
    2        -0.6300866862        -8.5728334354    1.0000        4
    3        -0.6300866788        -8.5728333350    1.0000        2
    4        -0.6300866787        -8.5728333335    1.0000        3
    5         0.0026901249         0.0366013016    0.0000        1
    6         0.0196127122         0.2668466399    0.0000        2
    7         0.0196127124         0.2668466428    0.0000        3
    8         0.0196127127         0.2668466463    0.0000        4
    9         0.1371393929         1.8658911513    0.0000        1
   10         0.1371393952         1.8658911827    0.0000        1
   11         0.1575367865         2.1434140100    0.0000        4
   12         0.1575367883         2.1434140336    0.0000        3
   13         0.1575367894         2.1434140495    0.0000        2
   14         0.2654798627         3.6120659166    0.0000        1
   15         0.3749124624         5.1009839808    0.0000        4
   16         0.3749124921         5.1009843856    0.0000        3
   17         0.3749124925         5.1009843898    0.0000        2
   18         0.3830937884         5.2122974656    0.0000        3
   19         0.3830937887         5.2122974706    0.0000        2
   20         0.3830938075         5.2122977257    0.0000        4
   21         0.4208033183         5.7253657886    0.0000        3
   22         0.4208033185         5.7253657905    0.0000        2
   23         0.4208033330         5.7253659884    0.0000        4
   24         0.4849561728         6.5982166953    0.0000        1
   25         0.5161060359         7.0220355027    0.0000        1
   26         0.5161060787         7.0220360859    0.0000        1
   27         0.6119338518         8.3258496009    0.0000        2
   28         0.6119338520         8.3258496032    0.0000        3
   29         0.6119338688         8.3258498325    0.0000        4
   30         0.6218142796         8.4602807248    0.0000        1
   31         0.6218142798         8.4602807282    0.0000        1
   32         0.6235417398         8.4837842032    0.0000        1
   33         0.6253015653         8.5077280367    0.0000        4
   34         0.6253015923         8.5077284039    0.0000        2
   35         0.6253015933         8.5077284175    0.0000        3
   36         0.6972155598         9.4861754638    0.0000        1
   37         0.7102743791         9.6638511474    0.0000        2
   38         0.7102743797         9.6638511549    0.0000        3
   39         0.7102744042         9.6638514886    0.0000        4
   40         0.8575826518        11.6680980440    0.0000        3
   41         0.8575826519        11.6680980447    0.0000        2
   42         0.8575826788        11.6680984114    0.0000        4
   43         0.8650994376        11.7703699287    0.0000        1
   44         0.8650994427        11.7703699978    0.0000        1
   45         0.8660820329        11.7837389233    0.0000        3
   46         0.8660820330        11.7837389248    0.0000        2
   47         0.8660820886        11.7837396809    0.0000        4
   48         0.8664249363        11.7884043980    0.0000        3
   49         0.8664249367        11.7884044041    0.0000        2
   50         0.8664249408        11.7884044602    0.0000        4
   51         0.8742642635        11.8950647160    0.0000        2
   52         0.8742642638        11.8950647203    0.0000        3
   53         0.8742642643        11.8950647272    0.0000        4
   54         0.8845080440        12.0344395450    0.0000        4
   55         0.8845080589        12.0344397483    0.0000        3
   56         0.8845080591        12.0344397503    0.0000        2
   57         1.0768014689        14.6507454252    0.0000        4
   58         1.0768014783        14.6507455534    0.0000        3
   59         1.0768014783        14.6507455540    0.0000        2
   60         1.1237142796        15.2890317447    0.0000        2
   61         1.1237142796        15.2890317453    0.0000        3
   62         1.1237142808        15.2890317623    0.0000        4
   63         1.1242369613        15.2961432477    0.0000        1
   64         1.1252240771        15.3095737485    0.0000        4
   65         1.1252241480        15.3095747134    0.0000        2
   66         1.1252241483        15.3095747176    0.0000        3
   67         1.1276596620        15.3427118294    0.0000        1
   68         1.1276597560        15.3427131087    0.0000        1
   69         1.1284292166        15.3531822347    0.0000        1
   70         1.1305113701        15.3815116000    0.0000        3
   71         1.1305113702        15.3815116000    0.0000        2
   72         1.1305113878        15.3815118402    0.0000        4
   73         1.1679380137        15.8907310267    0.0000        1
   74         1.1679380210        15.8907311264    0.0000        1
   75         1.1990705706        16.3143143694    0.0000        1
   76         1.2165093986        16.5515835759    0.0000        2
   77         1.2165093994        16.5515835870    0.0000        3
   78         1.2165094287        16.5515839846    0.0000        4
   79         1.2709057441        17.2916893735    0.0000        1
   80         1.2709057467        17.2916894079    0.0000        1

 Max and min values of charge density [e/bohr^3]  0.1748E+00  0.5357E-08     
 
Hartree potential time [sec]:       0.05
 
 
   Eigenvalue Energy             =          -5.77306678 [Ry]
   Hartree Energy                =          22.17928541 [Ry]
   Integral_{Vxc*rho}            =          -6.41818429 [Ry]
   Exc = Integral{eps_xc*rho}    =          -4.91953186 [Ry]
   Electron-Ion energy           =         -50.82088887 [Ry]
   Ion-Ion Energy                =          13.95931646 [Ry]
   (E(new)-E(old))/atom  =            -0.00114969 [eV]
 
   Total Energy =           -12.43753400 [Ry]
   Energy/atom  =           -33.84452002 [eV]
 
 
  0- 4    SRE of pot. & charge weighted pot =   0.0622424049    0.0076963673

 Number of converged eigen-pairs per representation: 
    23    20    20    20                          total =     83
 Number of matrix-vector multiplications: 
   444   473   475   473                          total =   1865
 
Diagonalization time [sec] :       2.12
 
 Fermi level at    -0.4204 [Ry]
 
   State   Eigenvalue [Ry]      Eigenvalue [eV]    Occup.     Repr.
 
    1        -0.9851453858       -13.4036910895    1.0000        1
    2        -0.6200910740        -8.4368351344    1.0000        4
    3        -0.6200910539        -8.4368348606    1.0000        3
    4        -0.6200910536        -8.4368348572    1.0000        2
    5         0.0072466407         0.0985963438    0.0000        1
    6         0.0255243391         0.3472790531    0.0000        2
    7         0.0255243392         0.3472790548    0.0000        3
    8         0.0255243457         0.3472791426    0.0000        4
    9         0.1410617338         1.9192577380    0.0000        1
   10         0.1410618146         1.9192588373    0.0000        1
   11         0.1609348973         2.1896480251    0.0000        4
   12         0.1609349948         2.1896493524    0.0000        3
   13         0.1609349953         2.1896493596    0.0000        2
   14         0.2703278783         3.6780270468    0.0000        1
   15         0.3781518437         5.1450583550    0.0000        4
   16         0.3781518535         5.1450584877    0.0000        3
   17         0.3781518536         5.1450584902    0.0000        2
   18         0.3855002948         5.2450399111    0.0000        3
   19         0.3855002948         5.2450399113    0.0000        2
   20         0.3855003295         5.2450403829    0.0000        4
   21         0.4240314696         5.7692873692    0.0000        4
   22         0.4240315462         5.7692884111    0.0000        3
   23         0.4240315462         5.7692884116    0.0000        2
   24         0.4887992902         6.6505053830    0.0000        1
   25         0.5205900771         7.0830444709    0.0000        1
   26         0.5205902510         7.0830468373    0.0000        1
   27         0.6141223691         8.3556261289    0.0000        4
   28         0.6141224195         8.3556268157    0.0000        3
   29         0.6141224196         8.3556268161    0.0000        2
   30         0.6237339957         8.4863999988    0.0000        1
   31         0.6237340067         8.4864001488    0.0000        1
   32         0.6257542371         8.5138869996    0.0000        1
   33         0.6272919226         8.5348084406    0.0000        2
   34         0.6272919230         8.5348084465    0.0000        3
   35         0.6272920393         8.5348100290    0.0000        4
   36         0.7011981681         9.5403620353    0.0000        1
   37         0.7147040294         9.7241200835    0.0000        4
   38         0.7147041239         9.7241213695    0.0000        3
   39         0.7147041241         9.7241213718    0.0000        2
   40         0.8596175284        11.6957841675    0.0000        4
   41         0.8596175719        11.6957847595    0.0000        3
   42         0.8596175719        11.6957847596    0.0000        2
   43         0.8669440000        11.7954666758    0.0000        1
   44         0.8669440987        11.7954680182    0.0000        1
   45         0.8679359637        11.8089631344    0.0000        4
   46         0.8679360798        11.8089647144    0.0000        3
   47         0.8679360799        11.8089647161    0.0000        2
   48         0.8682004083        11.8125611157    0.0000        4
   49         0.8682004152        11.8125612088    0.0000        3
   50         0.8682004153        11.8125612109    0.0000        2
   51         0.8780673735        11.9468090701    0.0000        3
   52         0.8780673735        11.9468090702    0.0000        2
   53         0.8780673837        11.9468092095    0.0000        4
   54         0.8880490418        12.0826176525    0.0000        4
   55         0.8880491013        12.0826184619    0.0000        3
   56         0.8880491015        12.0826184651    0.0000        2
   57         1.0809670486        14.7074214693    0.0000        2
   58         1.0809670487        14.7074214709    0.0000        3
   59         1.0809670827        14.7074219344    0.0000        4
   60         1.1254307402        15.3123855647    0.0000        3
   61         1.1254307408        15.3123855734    0.0000        2
   62         1.1254307892        15.3123862315    0.0000        4
   63         1.1259555374        15.3195258506    0.0000        1
   64         1.1269483838        15.3330343199    0.0000        2
   65         1.1269483845        15.3330343303    0.0000        3
   66         1.1269485484        15.3330365593    0.0000        4
   67         1.1295010258        15.3677650573    0.0000        1
   68         1.1295012364        15.3677679225    0.0000        1
   69         1.1300898108        15.3757759484    0.0000        1
   70         1.1322433667        15.4050767990    0.0000        4
   71         1.1322434588        15.4050780518    0.0000        3
   72         1.1322434595        15.4050780616    0.0000        2
   73         1.1725428602        15.9533836475    0.0000        1
   74         1.1725429946        15.9533854765    0.0000        1
   75         1.2031283180        16.3695232692    0.0000        1
   76         1.2202091689        16.6019219109    0.0000        4
   77         1.2202092026        16.6019223687    0.0000        3
   78         1.2202092027        16.6019223694    0.0000        2
   79         1.2737902440        17.3309353018    0.0000        1
   80         1.2737902468        17.3309353398    0.0000        1

 Max and min values of charge density [e/bohr^3]  0.1744E+00  0.5674E-08     
 
Hartree potential time [sec]:       0.06
 
 
   Eigenvalue Energy             =          -5.69083713 [Ry]
   Hartree Energy                =          22.13067437 [Ry]
   Integral_{Vxc*rho}            =          -6.40454612 [Ry]
   Exc = Integral{eps_xc*rho}    =          -4.90913570 [Ry]
   Electron-Ion energy           =         -50.75068022 [Ry]
   Ion-Ion Energy                =          13.95931646 [Ry]
   (E(new)-E(old))/atom  =             0.00003420 [eV]
 
   Total Energy =           -12.43752143 [Ry]
   Energy/atom  =           -33.84448582 [eV]
 
 
  0- 5    SRE of pot. & charge weighted pot =   0.0768768154    0.0095859710

 Number of converged eigen-pairs per representation: 
    23    20    20    20                          total =     83
 Number of matrix-vector multiplications: 
   416   453   454   444                          total =   1767
 
Diagonalization time [sec] :       1.99
 
 Fermi level at    -0.4255 [Ry]
 
   State   Eigenvalue [Ry]      Eigenvalue [eV]    Occup.     Repr.
 
    1        -0.9913015357       -13.4874504349    1.0000        1
    2        -0.6257159388        -8.5133659202    1.0000        4
    3        -0.6257159091        -8.5133655155    1.0000        2
    4        -0.6257159090        -8.5133655153    1.0000        3
    5         0.0043745082         0.0595186836    0.0000        1
    6         0.0221575824         0.3014716347    0.0000        2
    7         0.0221575824         0.3014716348    0.0000        3
    8         0.0221575852         0.3014716723    0.0000        4
    9         0.1386357818         1.8862507204    0.0000        1
   10         0.1386359340         1.8862527913    0.0000        1
   11         0.1586664579         2.1587840926    0.0000        4
   12         0.1586666219         2.1587863245    0.0000        3
   13         0.1586666220         2.1587863250    0.0000        2
   14         0.2675448877         3.6401622334    0.0000        1
   15         0.3762597149         5.1193144290    0.0000        4
   16         0.3762597481         5.1193148811    0.0000        2
   17         0.3762597481         5.1193148811    0.0000        3
   18         0.3837806869         5.2216432700    0.0000        3
   19         0.3837806869         5.2216432701    0.0000        2
   20         0.3837807446         5.2216440553    0.0000        4
   21         0.4219350258         5.7407635742    0.0000        4
   22         0.4219351873         5.7407657720    0.0000        3
   23         0.4219351874         5.7407657721    0.0000        2
   24         0.4863812435         6.6176059227    0.0000        1
   25         0.5181078982         7.0492724410    0.0000        1
   26         0.5181081806         7.0492762839    0.0000        1
   27         0.6126628049         8.3357675914    0.0000        4
   28         0.6126628769         8.3357685708    0.0000        3
   29         0.6126628769         8.3357685710    0.0000        2
   30         0.6223454540         8.4675077785    0.0000        1
   31         0.6223455189         8.4675086609    0.0000        1
   32         0.6243908766         8.4953373884    0.0000        1
   33         0.6259352097         8.5163492756    0.0000        3
   34         0.6259352098         8.5163492772    0.0000        2
   35         0.6259353926         8.5163517642    0.0000        4
   36         0.6989413846         9.5096566909    0.0000        1
   37         0.7120916840         9.6885770344    0.0000        4
   38         0.7120918194         9.6885788757    0.0000        3
   39         0.7120918194         9.6885788761    0.0000        2
   40         0.8582710983        11.6774649091    0.0000        4
   41         0.8582711836        11.6774660702    0.0000        3
   42         0.8582711836        11.6774660702    0.0000        2
   43         0.8657080623        11.7786507540    0.0000        1
   44         0.8657082024        11.7786526598    0.0000        1
   45         0.8667475162        11.7927933556    0.0000        4
   46         0.8667477206        11.7927961371    0.0000        3
   47         0.8667477206        11.7927961373    0.0000        2
   48         0.8669736229        11.7958697181    0.0000        3
   49         0.8669736229        11.7958697186    0.0000        2
   50         0.8669736388        11.7958699347    0.0000        4
   51         0.8758306432        11.9163765650    0.0000        2
   52         0.8758306444        11.9163765813    0.0000        3
   53         0.8758306740        11.9163769840    0.0000        4
   54         0.8860563636        12.0555056717    0.0000        4
   55         0.8860564627        12.0555070198    0.0000        2
   56         0.8860564639        12.0555070372    0.0000        3
   57         1.0784676020        14.6734144991    0.0000        3
   58         1.0784676020        14.6734144992    0.0000        2
   59         1.0784676270        14.6734148395    0.0000        4
   60         1.1243015224        15.2970216538    0.0000        3
   61         1.1243015225        15.2970216542    0.0000        2
   62         1.1243016021        15.2970227378    0.0000        4
   63         1.1248157438        15.3040180466    0.0000        1
   64         1.1258551339        15.3181597815    0.0000        2
   65         1.1258551342        15.3181597853    0.0000        3
   66         1.1258553795        15.3181631225    0.0000        4
   67         1.1283585425        15.3522206581    0.0000        1
   68         1.1283588948        15.3522254515    0.0000        1
   69         1.1289667783        15.3604961928    0.0000        1
   70         1.1311107506        15.3896666501    0.0000        4
   71         1.1311108990        15.3896686693    0.0000        2
   72         1.1311108995        15.3896686767    0.0000        3
   73         1.1699538234        15.9181577304    0.0000        1
   74         1.1699540389        15.9181606621    0.0000        1
   75         1.2007068104        16.3365767210    0.0000        1
   76         1.2180850005        16.5730209003    0.0000        4
   77         1.2180850485        16.5730215535    0.0000        3
   78         1.2180850499        16.5730215717    0.0000        2
   79         1.2719682133        17.3061451168    0.0000        1
   80         1.2719682435        17.3061455269    0.0000        1

 Max and min values of charge density [e/bohr^3]  0.1747E+00  0.5489E-08     
 
Hartree potential time [sec]:       0.06
 
 
   Eigenvalue Energy             =          -5.73689859 [Ry]
   Hartree Energy                =          22.15666407 [Ry]
   Integral_{Vxc*rho}            =          -6.41221813 [Ry]
   Exc = Integral{eps_xc*rho}    =          -4.91498257 [Ry]
   Electron-Ion energy           =         -50.78912806 [Ry]
   Ion-Ion Energy                =          13.95931646 [Ry]
   (E(new)-E(old))/atom  =            -0.00012557 [eV]
 
   Total Energy =           -12.43756758 [Ry]
   Energy/atom  =           -33.84461139 [eV]
 
 
  0- 6    SRE of pot. & charge weighted pot =   0.0012309896    0.0000862575

 
Time for self-consistent field [sec] :      18.46
 
Total charge (user input) [e] =   0.00000000
Total charge (computed) [e] =   0.00000000
 Dipole components [Debye]:
x-component =   0.00000000
y-component =   0.00000000
z-component =   0.00000000
 
 Coordinates, forces, torque
 ============================
 
  symmetrizing forces according to symmetry operations 
             total (net) force [Ry/bohr]:      0.000000    0.000000    0.000000
 
 coordinates and total forces (after setting net force to zero)
-atom-  ----x----   ----y----   ----z-----   ----Fx----  ----Fy----   ----Fz---
                       [bohr]                             [Ry/bohr]            
 
   1     0.000000    0.000000    0.000000      0.000000    0.000000    0.000000
   2     1.627433    1.627433    1.627433     -0.013937   -0.013937   -0.013937
   3    -1.627433   -1.627433    1.627433      0.013937    0.013937   -0.013937
   4    -1.627433    1.627433   -1.627433      0.013937   -0.013937    0.013937
   5     1.627433   -1.627433   -1.627433     -0.013937    0.013937    0.013937
 
total torque [Ry/radian] :     0.000000    0.000000    0.000000
 
 
Time for movement    0 is [sec]:      18.50
 
 =================================================================
 
 
 Total CPU time [sec] :      18.62
Wall-clock time [sec] :      18.67
 Current date/time: 23-JAN-2009 12:44:58 -0700 UTC
 
 =================================================================
 
