 
 =================================================================
 
  PARSEC 1.1 - Real-space DFT Program
 
  serial run, no MPI interface
  starting run on 26-JAN-2009 10:08:04 -0700 UTC
 
 =================================================================
 
 Initial Run - starting from atomic potentials
 
 Grid data:
 ----------
 Confined system with zero boundary condition!
 Boundary sphere size is  15.000000 bohrs
 Grid spacing is  0.350000 bohrs
 
 Grid points are shifted from origin! 
 shift vector =   0.5000  0.5000  0.5000   [units of grid spacing]
 Finite-difference expansion of order 12
 
 Eigenvalue data: 
 ---------------- 
 Number of states:  60
Net cluster charge:    0.000
 
 Fermi temperature =   80.0 [K]
 
 Self-consistency data: 
 ----------------------
 Max number of iterations is  50
 Using DIAGLA (block preconditioned Lanczos eigen-problem solver)
 
 Self-consistency convergence criterion is  0.00020 Ry
 Diagonalization tolerance is 0.10000E-03
 Tolerance in initial diagonalization  100.000
 Buffer size in subspace is      1
 
 Mixer data:
 -----------
 Anderson mixer
 Initial Jacobian:  0.300  Mixing memory is  4
 
 Atom data:
 ----------

Total # of atom types is     1

 Atom coordinates input in Bohr radii
 
 There are   2 Cl atoms
 and their initial coordinates are:
 
    x [bohr]          y [bohr]          z [bohr]     movable?
    0.000000000       0.000000000       1.844979000      1
    0.000000000       0.000000000      -1.844979000      1
 
 Total number of atoms =    2
 
 Correlation data:
 -----------------
 Exchange-Correlation functional is ca
 LDA, Ceperley-Alder, Perdew-Zunger parametrization
 
 Other input data:
 -----------------
 Writing all calculated wave functions to wfn.dat file
 
No spin effects!

 
 Using new (r*V_ps) interpolation of pseudopot. !
 
 No eigenvalue output File!
 OutEvFlag =  0
 
 No minimization!
 
 No molecular dynamics!
 
 No polarizability!
 
 
 
 Pseudopotential messages
 ------------------------
 
 Pseudopotential file for atom type  1 is Cl_POTRE.DAT

Cl  ca  nrl  nc  
  atom 5.69p31-May-05   Improved Troullier - Martins potential
 3s(  2.00)  rc= 2.383p(  5.00)  rc= 2.293d(   .00)  rc= 2.38

 ion charge =  7.000    
 logarithmic parameters of pseudopot. radial grid
 r(i) = a*[Exp(b(i-1)) - 1)]
 Cl:   a = 0.145809E-03  b = 0.100000E-01    nr =     1363

NOTICE: No Core-Correction !

 Occupancy of orbitals : 
   2.000   5.000   0.000
 # of pseudopot= 3, Local component is l = 1, Core radius=  2.40
 
 Using order 18 for calculating dV/dr in pseudo
 
 Normalization check and Kleinman-Bylander Integral
 
                                 s                 p                 d
  Cl   Normalization        1.00001667        1.00001667        1.00767965
  Cl   K-B Integral         0.71561345       -8.47661405        0.00000000
 

 Symmetry Properties:
 --------------------

 The space group of the crystal is symmorphic
 (this usually means that symmetry operations do not
 involve rotations and translations simultaneously)

 Operation number: 
       1  2  3  4 13 14 15 16 25 26 27 28
      37 38 39 40


    Rotation matrices (r-lattice) and fractional translations (r-lattice)

    1     1  0  0     0  1  0     0  0  1      0.00000  0.00000  0.00000   E  
    2     1  0  0     0 -1  0     0  0 -1      0.00000  0.00000  0.00000   C2 
    3    -1  0  0     0  1  0     0  0 -1      0.00000  0.00000  0.00000   C2 
    4    -1  0  0     0 -1  0     0  0  1      0.00000  0.00000  0.00000   C2 
    5     0 -1  0    -1  0  0     0  0 -1      0.00000  0.00000  0.00000   C2 
    6     0  1  0    -1  0  0     0  0  1      0.00000  0.00000  0.00000   C4 
    7     0 -1  0     1  0  0     0  0  1      0.00000  0.00000  0.00000   C4 
    8     0  1  0     1  0  0     0  0 -1      0.00000  0.00000  0.00000   C2 
    9    -1  0  0     0 -1  0     0  0 -1      0.00000  0.00000  0.00000   IE 
   10    -1  0  0     0  1  0     0  0  1      0.00000  0.00000  0.00000   IC2
   11     1  0  0     0 -1  0     0  0  1      0.00000  0.00000  0.00000   IC2
   12     1  0  0     0  1  0     0  0 -1      0.00000  0.00000  0.00000   IC2
   13     0  1  0     1  0  0     0  0  1      0.00000  0.00000  0.00000   IC2
   14     0 -1  0     1  0  0     0  0 -1      0.00000  0.00000  0.00000   IC4
   15     0  1  0    -1  0  0     0  0 -1      0.00000  0.00000  0.00000   IC4
   16     0 -1  0    -1  0  0     0  0  1      0.00000  0.00000  0.00000   IC2
 
  Found Abelian subgroup D_2h  with  8  symmetry operations
 
  Character table :
------------------------------------------------------------
 Representation  |     E   C2   C2   C2   IE  IC2  IC2  IC2
     Ag      1   |     1    1    1    1    1    1    1    1
     B1g     2   |     1    1   -1   -1    1    1   -1   -1
     B2g     3   |     1   -1    1   -1    1   -1    1   -1
     B3g     4   |     1   -1   -1    1    1   -1   -1    1
     Au      5   |     1    1    1    1   -1   -1   -1   -1
     B1u     6   |     1    1   -1   -1   -1   -1    1    1
     B2u     7   |     1   -1    1   -1   -1    1   -1    1
     B3u     8   |     1   -1   -1    1   -1    1    1   -1
------------------------------------------------------------
 Operation number:     1    2    3    4    9   10   11   12
 
 
 Setup messages:
 ---------------
 The Hamiltonian matrix size is 329552
  reduced size is  41194
  maximum distance between grid points and their images is
  0.1240E-14  [bohr]
 
 There are 36 laplacian-related non-diagonal elements per row
 
 Non-local pseudopotential messages:
 -----------------------------------
 Max # of nonlocal points for one atom =  1356
 
 Sizes of all non-local blocks 
  1356  1356
 
 
 Memory usage:
 -------------
 estimated memory usage (no MPI)  :    66.96 MB
 
 total electrons from atomic density is    14.00141
 total electrons from atomic density is    14.00000

 Max and min values of charge density [e/bohr^3]  0.2634E+00  0.2089E-11     
 
Hartree potential time [sec]:       1.25
 
 
Setup time [sec] :       2.14
 
 -----------------------------------------------------------------
 
 Number of converged eigen-pairs per representation: 
     8     8     8     8     8     8     8     8  total =     64
 Number of matrix-vector multiplications: 
   545   688   759   648   702   691   665   621  total =   5319
 Number of converged eigen-pairs per representation: 
    10    10    10     8     8    10    10    10  total =     76
 Number of matrix-vector multiplications: 
   103   130   124     0     0   138   140   109  total =    744
 Number of converged eigen-pairs per representation: 
    12    10    10     8     8    12    12    12  total =     84
 Number of matrix-vector multiplications: 
   109     0     0     0     0   165   157   187  total =    618
 Number of converged eigen-pairs per representation: 
    15    10    10     8     8    12    12    12  total =     87
 Number of matrix-vector multiplications: 
   445     0     0     0     0     0     0     0  total =    445
 
Diagonalization time [sec] :     115.97
 
 Fermi level at    -0.3896 [Ry]
 
   State   Eigenvalue [Ry]      Eigenvalue [eV]    Occup.     Repr.
 
    1        -1.7415396725       -23.6950404760    1.0000        1
    2        -1.4134226880       -19.2307464088    1.0000        8
    3        -0.8843042886       -12.0316672903    1.0000        1
    4        -0.7726389701       -10.5123712996    1.0000        6
    5        -0.7726389701       -10.5123712996    1.0000        7
    6        -0.5647640162        -7.6840662515    1.0000        3
    7        -0.5647640162        -7.6840662514    1.0000        2
    8        -0.2948416095        -4.0115559701    0.0000        8
    9        -0.0362077279        -0.4926351036    0.0000        1
   10         0.0452120819         0.6151465446    0.0000        6
   11         0.0452120820         0.6151465451    0.0000        7
   12         0.0458358065         0.6236328164    0.0000        8
   13         0.0785629517         1.0689118080    0.0000        1
   14         0.0945815727         1.2868579620    0.0000        1
   15         0.0946323278         1.2875485260    0.0000        4
   16         0.1104094828         1.5022093405    0.0000        2
   17         0.1104094828         1.5022093407    0.0000        3
   18         0.1370037928         1.8640462038    0.0000        1
   19         0.1728116385         2.3512405915    0.0000        6
   20         0.1728116387         2.3512405936    0.0000        7
   21         0.1858903288         2.5291866349    0.0000        8
   22         0.1881612198         2.5600839243    0.0000        8
   23         0.1883696752         2.5629201263    0.0000        5
   24         0.1975170811         2.6873779019    0.0000        7
   25         0.1975170812         2.6873779036    0.0000        6
   26         0.2092659827         2.8472311074    0.0000        1
   27         0.2094810694         2.8501575339    0.0000        4
   28         0.2144563134         2.9178497089    0.0000        7
   29         0.2144563136         2.9178497109    0.0000        6
   30         0.2261819578         3.0773864819    0.0000        8
   31         0.2452707686         3.3371050236    0.0000        1
   32         0.2710332399         3.6876240548    0.0000        6
   33         0.2710332399         3.6876240560    0.0000        7
   34         0.2757202446         3.7513945040    0.0000        2
   35         0.2757202446         3.7513945045    0.0000        3
   36         0.2769846809         3.7685981718    0.0000        1
   37         0.2783535867         3.7872232300    0.0000        1
   38         0.2787319279         3.7923708646    0.0000        4
   39         0.2805700663         3.8173802078    0.0000        3
   40         0.2805700664         3.8173802099    0.0000        2
   41         0.2833803271         3.8556160548    0.0000        1
   42         0.2836162372         3.8588258002    0.0000        4
   43         0.2994074907         4.0736784365    0.0000        3
   44         0.2994074911         4.0736784431    0.0000        2
   45         0.3636533202         4.9477943439    0.0000        8
   46         0.3639896585         4.9523704956    0.0000        5
   47         0.3712843826         5.0516210524    0.0000        8
   48         0.3722127469         5.0642521922    0.0000        7
   49         0.3722127483         5.0642522107    0.0000        6
   50         0.3737972078         5.0858100502    0.0000        7
   51         0.3737972091         5.0858100671    0.0000        6
   52         0.3740338093         5.0890292027    0.0000        8
   53         0.3745262770         5.0957296196    0.0000        5
   54         0.3753770686         5.1073053204    0.0000        8
   55         0.3756377132         5.1108515976    0.0000        5
   56         0.3769683479         5.1289559479    0.0000        7
   57         0.3769683482         5.1289559519    0.0000        6
   58         0.3856740716         5.2474042830    0.0000        1
   59         0.3949126891         5.3731030653    0.0000        8
   60         0.4216199200         5.7364763074    0.0000        6

 Max and min values of charge density [e/bohr^3]  0.2923E+00  0.1440E-13     
 
Hartree potential time [sec]:       1.38
 
 
   Eigenvalue Energy             =         -13.42814524 [Ry]
   Hartree Energy                =          77.04857065 [Ry]
   Integral_{Vxc*rho}            =         -14.76734335 [Ry]
   Exc = Integral{eps_xc*rho}    =         -11.29858240 [Ry]
   Electron-Ion energy           =        -176.72591033 [Ry]
   Ion-Ion Energy                =          26.55856788 [Ry]
   (E(new)-E(old))/atom  =          -590.36786842 [eV]
 
   Total Energy =           -60.22322642 [Ry]
   Energy/atom  =          -409.69258702 [eV]
 
 
  0- 1    SRE of pot. & charge weighted pot =   0.2579182313    0.0475422429

 Number of converged eigen-pairs per representation: 
    13     6     6     5     5    10    10    12  total =     67
 Number of matrix-vector multiplications: 
   482   203   189   178   168   408   421   482  total =   2531
 
Diagonalization time [sec] :      39.64
 
 Fermi level at    -0.3889 [Ry]
 
   State   Eigenvalue [Ry]      Eigenvalue [eV]    Occup.     Repr.
 
    1        -1.7433228138       -23.7193015400    1.0000        1
    2        -1.4071652103       -19.1456084187    1.0000        8
    3        -0.8893251239       -12.0999797705    1.0000        1
    4        -0.7655040950       -10.4152956157    1.0000        6
    5        -0.7655040666       -10.4152952299    1.0000        7
    6        -0.5548131730        -7.5486770698    1.0000        3
    7        -0.5548131357        -7.5486765621    1.0000        2
    8        -0.2991882003        -4.0706948159    0.0000        8
    9        -0.0333630627        -0.4539311579    0.0000        1
   10         0.0463401202         0.6304944079    0.0000        8
   11         0.0468874170         0.6379408179    0.0000        7
   12         0.0468875439         0.6379425447    0.0000        6
   13         0.0793233173         1.0792571911    0.0000        1
   14         0.0973122259         1.3240106837    0.0000        1
   15         0.0973703068         1.3248009197    0.0000        4
   16         0.1110240576         1.5105711223    0.0000        2
   17         0.1110241370         1.5105722037    0.0000        3
   18         0.1383580176         1.8824715159    0.0000        1
   19         0.1736375039         2.3624771501    0.0000        7
   20         0.1736378479         2.3624818303    0.0000        6
   21         0.1866007755         2.5388528312    0.0000        8
   22         0.1887464727         2.5680467588    0.0000        8
   23         0.1889586086         2.5709330372    0.0000        5
   24         0.1985996064         2.7021065244    0.0000        6
   25         0.1985996448         2.7021070476    0.0000        7
   26         0.2128650092         2.8961987419    0.0000        1
   27         0.2130842299         2.8991814157    0.0000        4
   28         0.2161719523         2.9411923492    0.0000        7
   29         0.2161723059         2.9411971594    0.0000        6
   30         0.2268901105         3.0870214656    0.0000        8
   31         0.2449629873         3.3329174126    0.0000        1
   32         0.2726824855         3.7100633610    0.0000        7
   33         0.2726827600         3.7100670960    0.0000        6
   34         0.2760894151         3.7564173635    0.0000        2
   35         0.2760897908         3.7564224760    0.0000        3
   36         0.2774507907         3.7749399681    0.0000        1
   37         0.2787166661         3.7921632150    0.0000        1
   38         0.2790978900         3.7973500715    0.0000        4
   39         0.2809414208         3.8224327826    0.0000        3
   40         0.2809414864         3.8224336762    0.0000        2
   41         0.2842595015         3.8675779262    0.0000        1
   42         0.2844964985         3.8708024588    0.0000        4
   43         0.3004304400         4.0875964804    0.0000        2
   44         0.3004307140         4.0876002091    0.0000        3
   45         0.3659854551         4.9795249053    0.0000        8
   46         0.3663370260         4.9843083088    0.0000        5
   47         0.3716320399         5.0563512078    0.0000        8
   48         0.3724964413         5.0681120805    0.0000        7
   49         0.3724970714         5.0681206538    0.0000        6
   50         0.3740662002         5.0894699066    0.0000        6
   51         0.3740662791         5.0894709804    0.0000        7
   52         0.3746407176         5.0972866752    0.0000        8
   53         0.3751294024         5.1039356225    0.0000        5
   54         0.3757360148         5.1121890699    0.0000        8
   55         0.3759973824         5.1157451854    0.0000        5
   56         0.3777432991         5.1394997790    0.0000        6
   57         0.3777433675         5.1395007097    0.0000        7
   58         0.3871243554         5.2671365545    0.0000        1
   59         0.3957043139         5.3838737542    0.0000        8
   60         0.4238019120         5.7661640547    0.0000        6

 Max and min values of charge density [e/bohr^3]  0.2902E+00  0.1612E-13     
 
Hartree potential time [sec]:       1.35
 
 
   Eigenvalue Energy             =         -13.36089524 [Ry]
   Hartree Energy                =          77.03240706 [Ry]
   Integral_{Vxc*rho}            =         -14.75565294 [Ry]
   Exc = Integral{eps_xc*rho}    =         -11.28971820 [Ry]
   Electron-Ion energy           =        -176.69301642 [Ry]
   Ion-Ion Energy                =          26.55856788 [Ry]
   (E(new)-E(old))/atom  =            -0.02190477 [eV]
 
   Total Energy =           -60.22644634 [Ry]
   Energy/atom  =          -409.71449179 [eV]
 
 
  0- 2    SRE of pot. & charge weighted pot =   0.1662081272    0.0289845534

 Number of converged eigen-pairs per representation: 
    13     6     6     5     5    10    10    12  total =     67
 Number of matrix-vector multiplications: 
   562   227   227   205   196   465   468   551  total =   2901
 
Diagonalization time [sec] :      45.69
 
 Fermi level at    -0.3873 [Ry]
 
   State   Eigenvalue [Ry]      Eigenvalue [eV]    Occup.     Repr.
 
    1        -1.7454179108       -23.7478070114    1.0000        1
    2        -1.3976826033       -19.0165899645    1.0000        8
    3        -0.8980617272       -12.2188482477    1.0000        1
    4        -0.7529257144       -10.2441566847    1.0000        6
    5        -0.7529257046       -10.2441565515    1.0000        7
    6        -0.5382972471        -7.3239646840    1.0000        3
    7        -0.5382972384        -7.3239645662    1.0000        2
    8        -0.3069831631        -4.1767515210    0.0000        8
    9        -0.0285896818        -0.3889854927    0.0000        1
   10         0.0468989601         0.6380978718    0.0000        8
   11         0.0496260814         0.6752025389    0.0000        7
   12         0.0496261246         0.6752031263    0.0000        6
   13         0.0808544979         1.1000901279    0.0000        1
   14         0.1018199144         1.3853413909    0.0000        1
   15         0.1018914282         1.3863143945    0.0000        4
   16         0.1118235320         1.5214486118    0.0000        2
   17         0.1118235596         1.5214489866    0.0000        3
   18         0.1407005923         1.9143441181    0.0000        1
   19         0.1749436558         2.3802483915    0.0000        7
   20         0.1749437168         2.3802492220    0.0000        6
   21         0.1877637736         2.5546763504    0.0000        8
   22         0.1895185063         2.5785508934    0.0000        8
   23         0.1897368855         2.5815221174    0.0000        5
   24         0.2004308593         2.7270221852    0.0000        6
   25         0.2004308712         2.7270223475    0.0000        7
   26         0.2190015384         2.9796911314    0.0000        6
   27         0.2190015604         2.9796914308    0.0000        7
   28         0.2192743571         2.9834030480    0.0000        1
   29         0.2195010967         2.9864880211    0.0000        4
   30         0.2277606529         3.0988658909    0.0000        8
   31         0.2444887906         3.3264655871    0.0000        1
   32         0.2756834387         3.7508937297    0.0000        7
   33         0.2756834670         3.7508941149    0.0000        6
   34         0.2766224303         3.7636694618    0.0000        2
   35         0.2766224320         3.7636694858    0.0000        3
   36         0.2782195115         3.7853990301    0.0000        1
   37         0.2792294776         3.7991404261    0.0000        1
   38         0.2796155980         3.8043939032    0.0000        4
   39         0.2814345038         3.8291415723    0.0000        3
   40         0.2814345193         3.8291417827    0.0000        2
   41         0.2857650329         3.8880618841    0.0000        1
   42         0.2860039708         3.8913128259    0.0000        4
   43         0.3019553274         4.1083437933    0.0000        3
   44         0.3019553285         4.1083438080    0.0000        2
   45         0.3690642137         5.0214138784    0.0000        8
   46         0.3694531097         5.0267051202    0.0000        5
   47         0.3721888667         5.0639272821    0.0000        8
   48         0.3729156785         5.0738161388    0.0000        7
   49         0.3729157520         5.0738171381    0.0000        6
   50         0.3744138929         5.0942005442    0.0000        6
   51         0.3744139005         5.0942006468    0.0000        7
   52         0.3760556512         5.1165379784    0.0000        8
   53         0.3762458362         5.1191255983    0.0000        8
   54         0.3765084031         5.1226980313    0.0000        5
   55         0.3765265568         5.1229450270    0.0000        5
   56         0.3790826689         5.1577229770    0.0000        6
   57         0.3790826820         5.1577231544    0.0000        7
   58         0.3897056145         5.3022566494    0.0000        1
   59         0.3971352269         5.4033424700    0.0000        8
   60         0.4275902675         5.8177076613    0.0000        6

 Max and min values of charge density [e/bohr^3]  0.2867E+00  0.1816E-13     
 
Hartree potential time [sec]:       1.38
 
 
   Eigenvalue Energy             =         -13.24721629 [Ry]
   Hartree Energy                =          76.98752894 [Ry]
   Integral_{Vxc*rho}            =         -14.73617616 [Ry]
   Exc = Integral{eps_xc*rho}    =         -11.27493389 [Ry]
   Electron-Ion energy           =        -176.62049861 [Ry]
   Ion-Ion Energy                =          26.55856788 [Ry]
   (E(new)-E(old))/atom  =            -0.01343821 [eV]
 
   Total Energy =           -60.22842170 [Ry]
   Energy/atom  =          -409.72793000 [eV]
 
 
  0- 3    SRE of pot. & charge weighted pot =   0.0225614347    0.0029724543

 Number of converged eigen-pairs per representation: 
    13     6     6     5     5    10    10    12  total =     67
 Number of matrix-vector multiplications: 
   336   124   124   113   114   265   260   340  total =   1676
 
Diagonalization time [sec] :      25.59
 
 Fermi level at    -0.3872 [Ry]
 
   State   Eigenvalue [Ry]      Eigenvalue [eV]    Occup.     Repr.
 
    1        -1.7451873840       -23.7446705091    1.0000        1
    2        -1.3988413703       -19.0323559154    1.0000        8
    3        -0.8985099143       -12.2249461920    1.0000        1
    4        -0.7532759654       -10.2489221303    1.0000        6
    5        -0.7532759605       -10.2489220633    1.0000        7
    6        -0.5391414822        -7.3354511778    1.0000        3
    7        -0.5391414774        -7.3354511137    1.0000        2
    8        -0.3075550737        -4.1845328212    0.0000        8
    9        -0.0287479241        -0.3911385058    0.0000        1
   10         0.0466513693         0.6347292000    0.0000        8
   11         0.0494780820         0.6731888884    0.0000        7
   12         0.0494781076         0.6731892366    0.0000        6
   13         0.0809754748         1.1017361149    0.0000        1
   14         0.1017188923         1.3839669047    0.0000        1
   15         0.1017907770         1.3849449537    0.0000        4
   16         0.1115556732         1.5178041783    0.0000        2
   17         0.1115556895         1.5178043996    0.0000        3
   18         0.1406414979         1.9135400925    0.0000        1
   19         0.1748366541         2.3787925482    0.0000        7
   20         0.1748366907         2.3787930458    0.0000        6
   21         0.1877353448         2.5542895549    0.0000        8
   22         0.1892843510         2.5753650232    0.0000        8
   23         0.1895025858         2.5783342818    0.0000        5
   24         0.2003740462         2.7262491976    0.0000        6
   25         0.2003740531         2.7262492923    0.0000        7
   26         0.2189143934         2.9785054541    0.0000        6
   27         0.2189144036         2.9785055929    0.0000        7
   28         0.2191953903         2.9823286408    0.0000        1
   29         0.2194224195         2.9854175551    0.0000        4
   30         0.2274851150         3.0951169770    0.0000        8
   31         0.2445019631         3.3266448091    0.0000        1
   32         0.2755312313         3.7488228268    0.0000        7
   33         0.2755312492         3.7488230698    0.0000        6
   34         0.2765310826         3.7624266033    0.0000        2
   35         0.2765310855         3.7624266434    0.0000        3
   36         0.2781977685         3.7851031986    0.0000        1
   37         0.2791002706         3.7973824612    0.0000        1
   38         0.2794864303         3.8026364728    0.0000        4
   39         0.2812645421         3.8268291069    0.0000        3
   40         0.2812645512         3.8268292312    0.0000        2
   41         0.2857286885         3.8875673897    0.0000        1
   42         0.2859675476         3.8908172588    0.0000        4
   43         0.3016679247         4.1044334494    0.0000        2
   44         0.3016679264         4.1044334733    0.0000        3
   45         0.3688143734         5.0180146021    0.0000        8
   46         0.3692013747         5.0232800638    0.0000        5
   47         0.3721668027         5.0636270840    0.0000        8
   48         0.3728522979         5.0729537948    0.0000        7
   49         0.3728523435         5.0729544146    0.0000        6
   50         0.3742841823         5.0924357275    0.0000        6
   51         0.3742841870         5.0924357913    0.0000        7
   52         0.3758478595         5.1137108070    0.0000        8
   53         0.3761123736         5.1173097322    0.0000        8
   54         0.3763206249         5.1201431587    0.0000        5
   55         0.3763747880         5.1208800905    0.0000        5
   56         0.3790589879         5.1574007777    0.0000        6
   57         0.3790589959         5.1574008862    0.0000        7
   58         0.3896851173         5.3019777690    0.0000        1
   59         0.3971826739         5.4039880241    0.0000        8
   60         0.4275559150         5.8172402684    0.0000        6

 Max and min values of charge density [e/bohr^3]  0.2869E+00  0.1704E-13     
 
Hartree potential time [sec]:       1.41
 
 
   Eigenvalue Energy             =         -13.25474711 [Ry]
   Hartree Energy                =          76.98845398 [Ry]
   Integral_{Vxc*rho}            =         -14.73815235 [Ry]
   Exc = Integral{eps_xc*rho}    =         -11.27643326 [Ry]
   Electron-Ion energy           =        -176.62806775 [Ry]
   Ion-Ion Energy                =          26.55856788 [Ry]
   (E(new)-E(old))/atom  =            -0.00011429 [eV]
 
   Total Energy =           -60.22843850 [Ry]
   Energy/atom  =          -409.72804429 [eV]
 
 
  0- 4    SRE of pot. & charge weighted pot =   0.0110034475    0.0008400289

 Number of converged eigen-pairs per representation: 
    13     6     6     5     5    10    10    12  total =     67
 Number of matrix-vector multiplications: 
   350   141   135   110   111   264   264   327  total =   1702
 
Diagonalization time [sec] :      25.87
 
 Fermi level at    -0.3874 [Ry]
 
   State   Eigenvalue [Ry]      Eigenvalue [eV]    Occup.     Repr.
 
    1        -1.7456138462       -23.7504728691    1.0000        1
    2        -1.3992769259       -19.0382819989    1.0000        8
    3        -0.8989791971       -12.2313311597    1.0000        1
    4        -0.7534315737       -10.2510393061    1.0000        7
    5        -0.7534315737       -10.2510393060    1.0000        6
    6        -0.5392725919        -7.3372350308    1.0000        2
    7        -0.5392725919        -7.3372350306    1.0000        3
    8        -0.3082648517        -4.1941899197    0.0000        8
    9        -0.0287764649        -0.3915268262    0.0000        1
   10         0.0465211958         0.6329580857    0.0000        8
   11         0.0493901233         0.6719921395    0.0000        7
   12         0.0493901273         0.6719921943    0.0000        6
   13         0.0811532533         1.1041549341    0.0000        1
   14         0.1017130662         1.3838876366    0.0000        1
   15         0.1017856520         1.3848752241    0.0000        4
   16         0.1113419981         1.5148969571    0.0000        2
   17         0.1113420002         1.5148969870    0.0000        3
   18         0.1406457027         1.9135973016    0.0000        1
   19         0.1748033002         2.3783387416    0.0000        7
   20         0.1748033038         2.3783387906    0.0000        6
   21         0.1877750044         2.5548291543    0.0000        8
   22         0.1890863886         2.5726715859    0.0000        8
   23         0.1893047246         2.5756422215    0.0000        5
   24         0.2003608621         2.7260698173    0.0000        6
   25         0.2003608630         2.7260698292    0.0000        7
   26         0.2188641938         2.9778224486    0.0000        6
   27         0.2188641971         2.9778224935    0.0000        7
   28         0.2192376597         2.9829037498    0.0000        1
   29         0.2194651816         2.9859993680    0.0000        4
   30         0.2273392012         3.0931317035    0.0000        8
   31         0.2445493726         3.3272898540    0.0000        1
   32         0.2755292582         3.7487959811    0.0000        7
   33         0.2755292597         3.7487960018    0.0000        6
   34         0.2764825799         3.7617666855    0.0000        3
   35         0.2764825825         3.7617667214    0.0000        2
   36         0.2782233407         3.7854511288    0.0000        1
   37         0.2790008549         3.7960298318    0.0000        1
   38         0.2793872698         3.8012873160    0.0000        4
   39         0.2811130522         3.8247679653    0.0000        3
   40         0.2811130530         3.8247679761    0.0000        2
   41         0.2857277245         3.8875542745    0.0000        1
   42         0.2859665531         3.8908037276    0.0000        4
   43         0.3014542865         4.1015267319    0.0000        2
   44         0.3014542877         4.1015267482    0.0000        3
   45         0.3686700443         5.0160508889    0.0000        8
   46         0.3690567209         5.0213119331    0.0000        5
   47         0.3721854411         5.0638806742    0.0000        8
   48         0.3728218556         5.0725396028    0.0000        7
   49         0.3728218601         5.0725396644    0.0000        6
   50         0.3741742988         5.0909406745    0.0000        7
   51         0.3741742990         5.0909406777    0.0000        6
   52         0.3757133819         5.1118811316    0.0000        8
   53         0.3759942895         5.1157031036    0.0000        8
   54         0.3761872114         5.1183279611    0.0000        5
   55         0.3762565758         5.1192717190    0.0000        5
   56         0.3790662852         5.1575000631    0.0000        6
   57         0.3790662863         5.1575000776    0.0000        7
   58         0.3897081479         5.3022911185    0.0000        1
   59         0.3973145213         5.4057819133    0.0000        8
   60         0.4276049127         5.8179069214    0.0000        6

 Max and min values of charge density [e/bohr^3]  0.2870E+00  0.1819E-13     
 
Hartree potential time [sec]:       1.41
 
 
   Eigenvalue Energy             =         -13.25855660 [Ry]
   Hartree Energy                =          76.99459668 [Ry]
   Integral_{Vxc*rho}            =         -14.73933110 [Ry]
   Exc = Integral{eps_xc*rho}    =         -11.27732833 [Ry]
   Electron-Ion energy           =        -176.63873374 [Ry]
   Ion-Ion Energy                =          26.55856788 [Ry]
   (E(new)-E(old))/atom  =            -0.00000837 [eV]
 
   Total Energy =           -60.22843973 [Ry]
   Energy/atom  =          -409.72805266 [eV]
 
 
  0- 5    SRE of pot. & charge weighted pot =   0.0025551294    0.0004189908

 Number of converged eigen-pairs per representation: 
    13     6     6     5     5    10    10    12  total =     67
 Number of matrix-vector multiplications: 
   206    73    72    30    52   126   126   193  total =    878
 
Diagonalization time [sec] :      12.69
 
 Fermi level at    -0.3873 [Ry]
 
   State   Eigenvalue [Ry]      Eigenvalue [eV]    Occup.     Repr.
 
    1        -1.7453928172       -23.7474655919    1.0000        1
    2        -1.3991204925       -19.0361535975    1.0000        8
    3        -0.8986512615       -12.2268693335    1.0000        1
    4        -0.7533921523       -10.2505029462    1.0000        7
    5        -0.7533921517       -10.2505029380    1.0000        6
    6        -0.5392362035        -7.3367399379    1.0000        2
    7        -0.5392362030        -7.3367399309    1.0000        3
    8        -0.3080154508        -4.1907966207    0.0000        8
    9        -0.0288017017        -0.3918701932    0.0000        1
   10         0.0465269247         0.6330360323    0.0000        8
   11         0.0493521338         0.6714752623    0.0000        6
   12         0.0493521341         0.6714752657    0.0000        7
   13         0.0812216058         1.1050849238    0.0000        1
   14         0.1016729267         1.3833415056    0.0000        1
   15         0.1017455620         1.3843297674    0.0000        4
   16         0.1112982084         1.5143011636    0.0000        3
   17         0.1112982087         1.5143011679    0.0000        2
   18         0.1406377226         1.9134887258    0.0000        1
   19         0.1748143332         2.3784888550    0.0000        6
   20         0.1748143338         2.3784888624    0.0000        7
   21         0.1877858581         2.5549768285    0.0000        8
   22         0.1890367760         2.5719965673    0.0000        8
   23         0.1892550846         2.5749668296    0.0000        5
   24         0.2003353033         2.7257220695    0.0000        7
   25         0.2003353034         2.7257220717    0.0000        6
   26         0.2188400795         2.9774943537    0.0000        7
   27         0.2188400812         2.9774943762    0.0000        6
   28         0.2192028025         2.9824294901    0.0000        1
   29         0.2194304018         2.9855261609    0.0000        4
   30         0.2273379312         3.0931144241    0.0000        8
   31         0.2446286746         3.3283688206    0.0000        1
   32         0.2755950047         3.7496905156    0.0000        7
   33         0.2755950051         3.7496905197    0.0000        6
   34         0.2764742105         3.7616528129    0.0000        2
   35         0.2764742116         3.7616528286    0.0000        3
   36         0.2782291892         3.7855307020    0.0000        1
   37         0.2789765910         3.7956997019    0.0000        1
   38         0.2793630235         3.8009574255    0.0000        4
   39         0.2810728255         3.8242206494    0.0000        2
   40         0.2810728259         3.8242206541    0.0000        3
   41         0.2857073027         3.8872764191    0.0000        1
   42         0.2859461078         3.8905255529    0.0000        4
   43         0.3014152812         4.1009960325    0.0000        2
   44         0.3014152838         4.1009960678    0.0000        3
   45         0.3686248807         5.0154364023    0.0000        8
   46         0.3690112560         5.0206933468    0.0000        5
   47         0.3721908296         5.0639539887    0.0000        8
   48         0.3728161704         5.0724622517    0.0000        7
   49         0.3728161714         5.0724622648    0.0000        6
   50         0.3741467028         5.0905652087    0.0000        7
   51         0.3741467030         5.0905652112    0.0000        6
   52         0.3756761152         5.1113740879    0.0000        8
   53         0.3759600981         5.1152379031    0.0000        8
   54         0.3761503293         5.1178261500    0.0000        5
   55         0.3762223387         5.1188058961    0.0000        5
   56         0.3790488465         5.1572627959    0.0000        7
   57         0.3790488467         5.1572627985    0.0000        6
   58         0.3897147861         5.3023814369    0.0000        1
   59         0.3973719987         5.4065639403    0.0000        8
   60         0.4275745579         5.8174939195    0.0000        7

 Max and min values of charge density [e/bohr^3]  0.2870E+00  0.1750E-13     
 
Hartree potential time [sec]:       1.42
 
 
   Eigenvalue Energy             =         -13.25684256 [Ry]
   Hartree Energy                =          76.99264303 [Ry]
   Integral_{Vxc*rho}            =         -14.73888499 [Ry]
   Exc = Integral{eps_xc*rho}    =         -11.27698928 [Ry]
   Electron-Ion energy           =        -176.63548573 [Ry]
   Ion-Ion Energy                =          26.55856788 [Ry]
   (E(new)-E(old))/atom  =            -0.00000171 [eV]
 
   Total Energy =           -60.22843998 [Ry]
   Energy/atom  =          -409.72805437 [eV]
 
 
  0- 6    SRE of pot. & charge weighted pot =   0.0003513399    0.0000910337

 
Time for self-consistent field [sec] :     273.83
 
Total charge (user input) [e] =   0.00000000
Total charge (computed) [e] =   0.00000000
 Dipole components [Debye]:
x-component =   0.00000000
y-component =   0.00000000
z-component =   0.00000000
 
 Coordinates, forces, torque
 ============================
 
  symmetrizing forces according to symmetry operations 
             total (net) force [Ry/bohr]:      0.000000    0.000000    0.000000
 
 coordinates and total forces (after setting net force to zero)
-atom-  ----x----   ----y----   ----z-----   ----Fx----  ----Fy----   ----Fz---
                       [bohr]                             [Ry/bohr]            
 
   1     0.000000    0.000000    1.844979      0.000000    0.000000    0.010536
   2     0.000000    0.000000   -1.844979      0.000000    0.000000   -0.010536
 
total torque [Ry/radian] :     0.000000    0.000000    0.000000
 
 
Time for movement    0 is [sec]:     274.30
 
 =================================================================
 
 
 Total CPU time [sec] :     276.44
Wall-clock time [sec] :     277.04
 Current date/time: 26-JAN-2009 10:12:42 -0700 UTC
 
 =================================================================
 
